ckey,sname,title,city,cokey,year,isbn
1,SSDBM,27th International Conference on Scientific and Statistical Database Management; SSDBM '15,La Jolla,51,2015,978-1-4503-3709-0
2,SSDBM,31st International Conference on Scientific and Statistical Database Management; SSDBM 2019,Santa Cruz,51,2019,978-1-4503-6216-0
3,SSDBM,Conference on Scientific and Statistical Database Management; SSDBM '13,Baltimore,51,2013,978-1-4503-1921-8
4,SSDBM,28th International Conference on Scientific and Statistical Database Management; SSDBM 2016,Budapest,17,2016,978-1-4503-4215-5
5,SSDBM,Scientific and Statistical Database Management - 24th International Conference; SSDBM 2012,Chania,5,2012,978-3-642-31234-2
6,SSDBM,Conference on Scientific and Statistical Database Management; SSDBM '14,Aalborg,63,2014,978-1-4503-2722-0
7,SSDBM,29th International Conference on Scientific and Statistical Database Management,Chicago,51,2017,978-1-4503-5282-6
8,SSDBM,Scientific and Statistical Database Management - 23rd International Conference; SSDBM 2011,Portland,51,2011,978-3-642-22350-1
9,SSDBM,30th International Conference on Scientific and Statistical Database Management; SSDBM 2018,Bozen Bolzano,29,2018,
10,ICDT,18th International Conference on Database Theory; ICDT 2015,Brussels,25,2015,978-3-939897-79-8
11,ICDT,22nd International Conference on Database Theory; ICDT 2019,Lisbon,4,2019,978-3-95977-101-6
12,ICDT,Joint 2013 EDBT/ICDT Conferences; ICDT '13 Proceedings,Genoa,29,2013,978-1-4503-1598-2
13,ICDT,19th International Conference on Database Theory; ICDT 2016,Bordeaux,47,2016,978-3-95977-002-6
14,ICDT,15th International Conference on Database Theory; ICDT '12,Berlin,30,2012,978-1-4503-0791-8
15,ICDT,Proc. 17th International Conference on Database Theory (ICDT),Athens,5,2014,
16,ICDT,20th International Conference on Database Theory; ICDT 2017,Venice,29,2017,978-3-95977-024-8
17,ICDT,Database Theory - ICDT 2011; 14th International Conference,Uppsala,38,2011,978-1-4503-0529-7
18,ICDT,21st International Conference on Database Theory; ICDT 2018,Vienna,6,2018,978-3-95977-063-7
19,KDD,21th ACM SIGKDD International Conference on Knowledge Discovery and Data Mining,Sydney,67,2015,978-1-4503-3664-2
20,KDD,25th ACM SIGKDD International Conference on Knowledge Discovery & Data Mining; KDD 2019,Anchorage,51,2019,978-1-4503-6201-6
21,KDD,19th ACM SIGKDD International Conference on Knowledge Discovery and Data Mining; KDD 2013,Chicago,51,2013,978-1-4503-2174-7
22,KDD,22nd ACM SIGKDD International Conference on Knowledge Discovery and Data Mining,San Francisco,51,2016,978-1-4503-4232-2
23,KDD,18th ACM SIGKDD International Conference on Knowledge Discovery and Data Mining; KDD '12,Beijing,41,2012,978-1-4503-1462-6
24,KDD,20th ACM SIGKDD International Conference on Knowledge Discovery and Data Mining; KDD '14,New York,51,2014,978-1-4503-2956-9
25,KDD,23rd ACM SIGKDD International Conference on Knowledge Discovery and Data Mining,Halifax,23,2017,978-1-4503-4887-4
26,KDD,17th ACM SIGKDD International Conference on Knowledge Discovery and Data Mining,San Diego,51,2011,978-1-4503-0813-7
27,KDD,24th ACM SIGKDD International Conference on Knowledge Discovery & Data Mining; KDD 2018,London,54,2018,
28,EDBT,18th International Conference on Extending Database Technology; EDBT 2015,Brussels,25,2015,
29,EDBT,Advances in Database Technology - 22nd International Conference on Extending Database Technology; EDBT 2019,Lisbon,4,2019,978-3-89318-081-3
30,EDBT,Joint 2013 EDBT/ICDT Conferences; EDBT '13 Proceedings,Genoa,29,2013,978-1-4503-1597-5
31,EDBT,19th International Conference on Extending Database Technology; EDBT 2016; Bordeaux; France,Bordeaux,47,2016,978-3-89318-070-7
32,EDBT,15th International Conference on Extending Database Technology; EDBT '12,Berlin,30,2012,978-1-4503-0790-1
33,EDBT,17th International Conference on Extending Database Technology; EDBT 2014,Athens,5,2014,
34,EDBT,20th International Conference on Extending Database Technology; EDBT 2017,Venice,29,2017,978-3-89318-073-8
35,EDBT,EDBT 2011; 14th International Conference on Extending Database Technology,Uppsala,38,2011,978-1-4503-0528-0
36,EDBT,21th International Conference on Extending Database Technology; EDBT 2018,Vienna,6,2018,978-3-89318-078-3
37,CIDR,CIDR 2015; Seventh Biennial Conference on Innovative Data Systems Research,Asilomar,51,2015,
38,CIDR,CIDR 2019; 9th Biennial Conference on Innovative Data Systems Research,Asilomar,51,2019,
39,CIDR,CIDR 2020; 10th Conference on Innovative Data Systems Research,Amsterdam,1,2020,
40,CIDR,CIDR 2013; Sixth Biennial Conference on Innovative Data Systems Research,Asilomar,51,2013,
41,CIDR,CIDR 2017; 8th Biennial Conference on Innovative Data Systems Research,Chaminade,51,2017,
42,CIDR,CIDR 2011; Fifth Biennial Conference on Innovative Data Systems Research,Asilomar,51,2011,
43,SIGMOD,2015 ACM SIGMOD International Conference on Management of Data,Melbourne,67,2015,978-1-4503-2758-9
44,SIGMOD,2019 International Conference on Management of Data; SIGMOD Conference 2019,Amsterdam,1,2019,978-1-4503-5643-5
45,SIGMOD,ACM SIGMOD International Conference on Management of Data; SIGMOD 2013,New York,51,2013,978-1-4503-2037-5
46,SIGMOD,2016 International Conference on Management of Data; SIGMOD Conference 2016,San Francisco,51,2016,978-1-4503-3531-7
47,SIGMOD,ACM SIGMOD International Conference on Management of Data; SIGMOD 2012,Scottsdale,51,2012,978-1-4503-1247-9
48,SIGMOD,International Conference on Management of Data; SIGMOD 2014,Snowbird,51,2014,978-1-4503-2376-5
49,SIGMOD,2017 ACM International Conference on Management of Data; SIGMOD Conference 2017,Chicago,51,2017,978-1-4503-4197-4
50,SIGMOD,ACM SIGMOD International Conference on Management of Data,Athens,5,2011,978-1-4503-0661-4
51,SIGMOD,2018 International Conference on Management of Data; SIGMOD Conference 2018,Houston,51,2018,
52,ER,Conceptual Modeling - 34th International Conference; ER 2015,Stockholm,38,2015,978-3-319-25263-6
53,ER,Conceptual Modeling - 38th International Conference; ER 2019,Salvador,11,2019,978-3-030-33223-5
54,ER,Conceptual Modeling - 32th International Conference; ER 2013,Hong Kong,41,2013,978-3-642-41923-2
55,ER,Conceptual Modeling - 35th International Conference; ER 2016,Gifu,18,2016,978-3-319-46396-4
56,ER,Conceptual Modeling - 31st International Conference ER 2012,Florence,29,2012,978-3-642-34001-7
57,ER,Conceptual Modeling - 33rd International Conference; ER 2014,Atlanta,51,2014,978-3-319-12205-2
58,ER,Conceptual Modeling - 36th International Conference; ER 2017,Valencia,57,2017,978-3-319-69904-2
59,ER,Conceptual Modeling - ER 2011; 30th International Conference; ER 2011,Brussels,25,2011,978-3-642-24605-0
60,ER,Conceptual Modeling - 37th International Conference; ER 2018,Xi'an,41,2018,978-3-030-00847-5
61,BTW,Datenbanksysteme für Business; Technologie und Web (BTW); 16. Fachtagung des GI-Fachbereichs Datenbanken und Informationssysteme (DBIS),Hamburg,30,2015,978-3-88579-635-0
62,BTW,Datenbanksysteme für Business; Technologie und Web (BTW 2019); 18. Fachtagung des GI-Fachbereichs „Datenbanken und Informationssysteme (DBIS),Rostock,30,2019,978-3-88579-683-1
63,BTW,Datenbanksysteme für Business; Technologie und Web (BTW); 15. Fachtagung des GI-Fachbereichs Datenbanken und Informationssysteme (DBIS),Magdeburg,30,2013,978-3-88579-608-4
64,BTW,Datenbanksysteme für Business; Technologie und Web (BTW 2017); 17. Fachtagung des GI-Fachbereichs „Datenbanken und Informationssysteme (DBIS),Stuttgart,30,2017,978-3-88579-659-6
65,BTW,Datenbanksysteme für Business; Technologie und Web (BTW); 14. Fachtagung des GI-Fachbereichs Datenbanken und Informationssysteme (DBIS),Kaiserslautern,30,2011,978-3-88579-274-1
66,WSDM,Eighth ACM International Conference on Web Search and Data Mining; WSDM 2015,Shanghai,41,2015,978-1-4503-3317-7
67,WSDM,Twelfth ACM International Conference on Web Search and Data Mining; WSDM 2019,Melbourne,67,2019,978-1-4503-5940-5
68,WSDM,WSDM '20: The Thirteenth ACM International Conference on Web Search and Data Mining,Houston,51,2020,978-1-4503-6822-3
69,WSDM,Sixth ACM International Conference on Web Search and Data Mining; WSDM 2013,Rome,29,2013,978-1-4503-1869-3
70,WSDM,Ninth ACM International Conference on Web Search and Data Mining,San Francisco,51,2016,978-1-4503-3716-8
71,WSDM,Fifth International Conference on Web Search and Web Data Mining; WSDM 2012,Seattle,51,2012,978-1-4503-0747-5
72,WSDM,Seventh ACM International Conference on Web Search and Data Mining; WSDM 2014,New York,51,2014,978-1-4503-2351-2
73,WSDM,Tenth ACM International Conference on Web Search and Data Mining; WSDM 2017,Cambridge,54,2017,978-1-4503-4675-7
74,WSDM,Forth International Conference on Web Search and Web Data Mining; WSDM 2011,Hong Kong,41,2011,978-1-4503-0493-1
75,WSDM,Eleventh ACM International Conference on Web Search and Data Mining; WSDM 2018,Marina Del Rey,51,2018,978-1-4503-5581-0
76,PODS,34th ACM Symposium on Principles of Database Systems; PODS 2015,Melbourne,67,2015,978-1-4503-2757-2
77,PODS,38th ACM SIGMOD-SIGACT-SIGAI Symposium on Principles of Database Systems; PODS 2019,Amsterdam,1,2019,978-1-4503-6227-6
78,PODS,32nd ACM SIGMOD-SIGACT-SIGART Symposium on Principles of Database Systems; PODS 2013,New York,51,2013,978-1-4503-2066-5
79,PODS,35th ACM SIGMOD-SIGACT-SIGAI Symposium on Principles of Database Systems; PODS 2016,San Francisco,51,2016,978-1-4503-4191-2
80,PODS,31st ACM SIGMOD-SIGACT-SIGART Symposium on Principles of Database Systems; PODS 2012,Scottsdale,51,2012,978-1-4503-1248-6
81,PODS,33rd ACM SIGMOD-SIGACT-SIGART Symposium on Principles of Database Systems; PODS'14,Snowbird,51,2014,978-1-4503-2375-8
82,PODS,36th ACM SIGMOD-SIGACT-SIGAI Symposium on Principles of Database Systems; PODS 2017,Chicago,51,2017,978-1-4503-4198-1
83,PODS,30th ACM SIGMOD-SIGACT-SIGART Symposium on Principles of Database Systems; PODS 2011,Athens,5,2011,978-1-4503-0660-7
84,PODS,37th ACM SIGMOD-SIGACT-SIGAI Symposium on Principles of Database Systems,Houston,51,2018,
85,CIKM,24th ACM International Conference on Information and Knowledge Management; CIKM 2015,Melbourne,67,2015,978-1-4503-3794-6
86,CIKM,28th ACM International Conference on Information and Knowledge Management; CIKM 2019,Beijing,41,2019,978-1-4503-6976-3
87,CIKM,22nd ACM International Conference on Information and Knowledge Management; CIKM'13,San Francisco,51,2013,978-1-4503-2263-8
88,CIKM,25th ACM International Conference on Information and Knowledge Management; CIKM 2016,Indianapolis,51,2016,978-1-4503-4073-1
89,CIKM,21st ACM International Conference on Information and Knowledge Management; CIKM'12,Maui,51,2012,978-1-4503-1156-4
90,CIKM,23rd ACM International Conference on Conference on Information and Knowledge Management; CIKM 2014,Shanghai,41,2014,978-1-4503-2598-1
91,CIKM,2017 ACM on Conference on Information and Knowledge Management; CIKM 2017,Singapore,31,2017,978-1-4503-4918-5
92,CIKM,20th ACM Conference on Information and Knowledge Management; CIKM 2011,Glasgow,54,2011,978-1-4503-0717-8
93,CIKM,27th ACM International Conference on Information and Knowledge Management; CIKM 2018,Torino,29,2018,978-1-4503-6014-2
94,SIGIR,38th International ACM SIGIR Conference on Research and Development in Information Retrieval,Santiago,14,2015,978-1-4503-3621-5
95,SIGIR,42nd International ACM SIGIR Conference on Research and Development in Information Retrieval; SIGIR 2019,Paris,47,2019,978-1-4503-6172-9
96,SIGIR,36th International ACM SIGIR conference on research and development in Information Retrieval; SIGIR '13,Dublin,42,2013,978-1-4503-2034-4
97,SIGIR,39th International ACM SIGIR conference on Research and Development in Information Retrieval; SIGIR 2016,Pisa,29,2016,978-1-4503-4069-4
98,SIGIR,35th International ACM SIGIR conference on research and development in Information Retrieval; SIGIR '12,Portland,51,2012,978-1-4503-1472-5
99,SIGIR,37th International ACM SIGIR Conference on Research and Development in Information Retrieval; SIGIR '14,Gold Coast,67,2014,978-1-4503-2257-7
100,SIGIR,40th International ACM SIGIR Conference on Research and Development in Information Retrieval; Shinjuku,Tokyo,18,2017,978-1-4503-5022-8
101,SIGIR,Proceeding of the 34th International ACM SIGIR Conference on Research and Development in Information Retrieval; SIGIR 2011,Beijing,41,2011,978-1-4503-0757-4
102,SIGIR,41st International ACM SIGIR Conference on Research & Development in Information Retrieval; SIGIR 2018,Ann Arbor,51,2018,
103,ICDE,31st IEEE International Conference on Data Engineering; ICDE 2015,Seoul,7,2015,978-1-4799-7964-6
104,ICDE,35th IEEE International Conference on Data Engineering; ICDE 2019,Macao,41,2019,978-1-5386-7474-1
105,ICDE,29th IEEE International Conference on Data Engineering; ICDE 2013,Brisbane,67,2013,978-1-4673-4909-3
106,ICDE,32nd IEEE International Conference on Data Engineering; ICDE 2016,Helsinki,27,2016,978-1-5090-2020-1
107,ICDE,IEEE 28th International Conference on Data Engineering (ICDE 2012),Washington,51,2012,978-0-7695-4747-3
108,ICDE,IEEE 30th International Conference on Data Engineering; ICDE 2014,Chicago,51,2014,978-1-4799-3480-5
109,ICDE,33rd IEEE International Conference on Data Engineering; ICDE 2017,San Diego,51,2017,978-1-5090-6543-1
110,ICDE,27th International Conference on Data Engineering; ICDE 2011,Hannover,30,2011,978-1-4244-8958-9
111,ICDE,34th IEEE International Conference on Data Engineering; ICDE 2018,Paris,47,2018,978-1-5386-5520-7
112,ICDM,2015 IEEE International Conference on Data Mining; ICDM 2015,Atlantic City,51,2015,978-1-4673-9504-5
113,ICDM,2019 IEEE International Conference on Data Mining; ICDM 2019,Beijing,41,2019,978-1-7281-4604-1
114,ICDM,2013 IEEE 13th International Conference on Data Mining,Dallas,51,2013,978-0-7695-5108-1
115,ICDM,IEEE 16th International Conference on Data Mining; ICDM 2016,Barcelona,57,2016,
116,ICDM,12th IEEE International Conference on Data Mining; ICDM 2012,Brussels,25,2012,978-1-4673-4649-8
117,ICDM,2014 IEEE International Conference on Data Mining; ICDM 2014,Shenzhen,41,2014,978-1-4799-4302-9
118,ICDM,2017 IEEE International Conference on Data Mining; ICDM 2017,New Orleans,51,2017,978-1-5386-3835-4
119,ICDM,11th IEEE International Conference on Data Mining; ICDM 2011,Vancouver,23,2011,978-0-7695-4408-3
120,ICDM,IEEE International Conference on Data Mining; ICDM 2018,Singapore,31,2018,978-1-5386-9159-5
121,WWW,24th International Conference on World Wide Web; WWW 2015,Florence,29,2015,978-1-4503-3469-3
122,WWW,World Wide Web Conference; WWW 2019,San Francisco,51,2019,978-1-4503-6674-8
123,WWW,22nd International World Wide Web Conference; WWW '13,Rio de Janeiro,11,2013,978-1-4503-2035-1
124,WWW,25th International Conference on World Wide Web; WWW 2016,Montreal,23,2016,978-1-4503-4143-1
125,WWW,21st World Wide Web Conference 2012; WWW 2012,Lyon,47,2012,978-1-4503-1229-5
126,WWW,23rd International World Wide Web Conference; WWW '14,Seoul,7,2014,978-1-4503-2744-2
127,WWW,26th International Conference on World Wide Web; WWW 2017,Perth,67,2017,978-1-4503-4913-0
128,WWW,20th International Conference on World Wide Web; WWW 2011,Hyderabad,20,2011,978-1-4503-0632-4
129,WWW,2018 World Wide Web Conference on World Wide Web; WWW 2018,Lyon,47,2018,
130,RECSYS,9th ACM Conference on Recommender Systems; RecSys 2015,Vienna,6,2015,978-1-4503-3692-5
131,RECSYS,13th ACM Conference on Recommender Systems; RecSys 2019,Copenhagen,63,2019,978-1-4503-6243-6
132,RECSYS,Seventh ACM Conference on Recommender Systems; RecSys '13,Hong Kong,41,2013,978-1-4503-2409-0
133,RECSYS,10th ACM Conference on Recommender Systems,Boston,51,2016,978-1-4503-4035-9
134,RECSYS,Sixth ACM Conference on Recommender Systems; RecSys '12,Dublin,42,2012,978-1-4503-1270-7
135,RECSYS,Eighth ACM Conference on Recommender Systems; RecSys '14,Foster City,51,2014,978-1-4503-2668-1
136,RECSYS,Eleventh ACM Conference on Recommender Systems; RecSys 2017,Como,29,2017,978-1-4503-4652-8
137,RECSYS,2011 ACM Conference on Recommender Systems; RecSys 2011,Chicago,51,2011,978-1-4503-0683-6
138,RECSYS,12th ACM Conference on Recommender Systems; RecSys 2018,Vancouver,23,2018,978-1-4503-5901-6
