cokey,name
1,The Netherlands
2,Cyprus
3,Malaysia
4,Portugal
5,Greece
6,Austria
7,South Korea
8,Iran
9,Morocco
10,Luxembourg
11,Brazil
12,Algeria
13,Slovenia
14,Chile
15,Ecuador
16,Argentina
17,Hungary
18,Japan
19,México
20,India
21,Albania
22,New Zealand
23,Canada
24,Turkey
25,Belgium
26,Senegal
27,Finland
28,Taiwan
29,Italy
30,Germany
31,Singapore
32,Hong Kong
33,Czechia
34,Egypt
35,Macau
36,Russia
37,Saudi Arabia
38,Sweden
39,Vietnam
40,Pakistan
41,China
42,Ireland
43,Qatar
44,Liechtenstein
45,Poland
46,Slovakia
47,France
48,Serbia
49,Bulgaria
50,Tunisia
51,USA
52,Romania
53,Uruguay
54,United Kingdom
55,United Arab Emirates
56,Switzerland
57,Spain
58,Palestine
59,Lebanon
60,Venezuela
61,Bangladesh
62,Norway
63,Denmark
64,Dominican Republic
65,Mexico
66,Israel
67,Australia
68,Estonia
