ikey,name,cokey
1,Federal Rural University of Amazônia,
2,Dana Farber Cancer Institute,51
3,University of Applied Sciences for Telecommunications Leipzig,30
4,University of Luxembourg,10
5,Macquarie University,67
6,Pitney Bowes,51
7,Hebei University of Technology,41
8,North Dakota State University,51
9,University of Oregon,51
10,Jawaharlal Nehru University,20
11,Northwestern University,51
12,Beijing University of Technology,41
13,Horizon Robotics,30
14,Kaiserslautern University of Technology,30
15,Lille University of Science and Technology,47
16,Aalto University,27
17,PSL Research University,47
18,eBay,51
19,University of Ioannina,5
20,IIT Hyderabad,20
21,Wellesley College,51
22,CISPA,30
23,Universitat Politecnica de Valencia,57
24,Chennai Mathematical Institute,20
25,State Key Lab of CAD&CG,41
26,INSA de Rouen,47
27,University of Oklahoma,51
28,Thomas J. Watson Research Center,51
29,OpenCitations.net,30
30,King Saud University,37
31,Harbin Institute of Technology,41
32,Texas State University,51
33,University of Huddersfield,54
34,Ocean University of China,41
35,The University of Michigan,51
36,Southern Illinois University,51
37,Case Western Reserve University Cleveland,51
38,University of Technology,67
39,Cornell Tech,51
40,University of Texas at San Antonio,51
41,Ishikawa Lab,
42,Optum Global Solutions Ltd,30
43,University of Alicante,57
44,University of Jinan,41
45,University of Amsterdam,1
46,University Paris 6,47
47,University Paris Dauphine,47
48,IRISA Rennes,47
49,École Polytechnique de Montréal,23
50,Naval Research Laboratory,51
51,Monash University,67
52,National and Kapodistrian University of Athens,5
53,Daegu Gyeongbuk Institute of Science Technology,7
54,Sorbonne University,47
55,Télécom ParisTech,47
56,Umeå University,38
57,Korea Advanced Institute of Science and Technology,7
58,Feedzai,30
59,ExxonMobil Corporate Strategic Research,30
60,University of Cádiz,57
61,Lawrence Berkeley National Laboratory,51
62,FIZ Karlsruhe,30
63,University of Nice Sophia Antipolis,47
64,Central Queensland University,67
65,Università di Pisa,29
66,Hong Kong Baptist University,32
67,Universiteit Hasselt,25
68,Centrum Wiskunde Informatica,1
69,Dortmund University of Technology,30
70,Discovery Sciences,25
71,Sfax University,50
72,Hebrew University of Jerusalem,66
73,Open University,54
74,Joseph Fourier University,47
75,University of Wollongong,67
76,King Juan Carlos University,57
77,University of Almería,57
78,SAIC,51
79,University of Oslo,62
80,LIX,47
81,Utah State University,51
82,Chinese Academy of Sciences,41
83,IMT Atlantique Bretagne Pays de la Loire,47
84,Universidad Politécnica de Madrid,57
85,University of Bordeaux,47
86,NEC,18
87,Montclair State University,51
88,Yunnan University,41
89,Yonsei University,7
90,University of St Andrews,54
91,Huazhong University of Science and Technology,41
92,Universidad del Azuay,15
93,Northwest A&F University,41
94,Federal University of Rio Grande do Sul,11
95,University of Rostock,30
96,Sorbonne Paris Cité,47
97,Ho Chi Minh University of Technical Education,39
98,University of Catania,29
99,University of Rennes,47
100,Renmin University,41
101,Lanzhou University,41
102,San Francisco State University,51
103,Ho Chi Minh City University of Science,39
104,The Open University,54
105,University of Naples Federico II,29
106,International Islamic University,40
107,University of New South Wales,67
108,University of Koblenz and Landau,30
109,Robert Gordon University Aderdeen,54
110,ENEA,30
111,Jacobs University Bremen,30
112,York University,23
113,European Commission Joint Research Centre,30
114,Massachusetts General Hospital,51
115,Facebook,51
116,University of Leiden,1
117,Laboratory of Computer Science and Automatic Control for Systems,30
118,University of Hildesheim,30
119,Shanxi University,41
120,Peter the Great St. Petersburg Polytechnic University,36
121,Aalborg University Copenhagen,63
122,King Abdullah University of Science and Technology,37
123,KU Leuven,25
124,Technical University of Munich,30
125,Audi AG,30
126,Samsung,30
127,University of Michigan School of Information,51
128,University of York,54
129,Technical University of Vienna,6
130,Cryptography Research,
131,The University of Mississippi,51
132,Southeast University,41
133,CAS Research Center on Fictitious Economy Data Science,30
134,University of Padova,29
135,University of Montréal,23
136,Stony Brook University,51
137,École Supérieure en Informatique,12
138,VIT University,20
139,L3S Research Center,30
140,INRAE,47
141,Ecole Centrale Paris,47
142,University of Milan,29
143,Beijing Normal University,41
144,University of Stavanger,62
145,Symantec,51
146,IIT,20
147,LIP6,47
148,Braunschweig University of Technology,30
149,UC,51
150,VSSUT,20
151,IIT Madras,20
152,University of Agder,62
153,Microsoft,51
154,University of Insubria,29
155,Zhongnan University of Economics and Law,41
156,Palacky University,33
157,College of Technology,39
158,University of Texas in Austin,
159,Max Planck Institute for Software Systems,30
160,South Dakota State University,51
161,NUS,31
162,Utrecht University,1
163,Binghamton University,51
164,University of Saskatchewan,23
165,Rochester Institute of Technology,51
166,Université de Montréal,23
167,Queen's University at Kingston,23
168,University of Cyprus,2
169,Technical University of Denmark,63
170,Shenzhen University,41
171,Emory University,51
172,University Malaysia Pahang,3
173,Alan Turing Institute,54
174,Biocomplexity Institute of Virginia Tech,51
175,Artificial Intelligence,51
176,Seeloz,51
177,Ferdowsi University of Mashhad,8
178,Université de Rennes 1 IRISA,47
179,Autonomous University of Madrid,57
180,University of Córdoba,57
181,Wageningen University and Research Centre,1
182,University Leipzig,30
183,Southern University of Science and Technology,41
184,University College London,54
185,University of Campinas,11
186,Louisiana State University,51
187,University of Wuppertal,30
188,Shandong Normal University,41
189,School of Computer Systems Sciences,20
190,University of Murcia,57
191,University of Westminster,54
192,Naval Postgraduate School,51
193,Centro de Investigación Científica y de Educación Superior de Ensenada,19
194,Nottingham University,54
195,Leibniz Institute of Plant Genetics and Crop Plant Research,30
196,Guangdong University of Technology,41
197,Julius Maximilians University of Würzburg,30
198,Websays,30
199,University of Colorado Denver,51
200,Institute for Infocomm Research,31
201,Matrosov Institute for System Dynamics and Control Theory SB RAS,36
202,Tampere University of Technology,27
203,Universiteit Leiden,1
204,University of Iowa,51
205,The University of Tulsa,51
206,Gachon University,7
207,Università della Basilicata,29
208,Petuum,51
209,The University of Texas,51
210,Jönköping University,38
211,Siemens Corporate Technology,6
212,Informatics Institute,11
213,University of Kent,54
214,HCMC University of Technology,39
215,University of Malmö,38
216,Commonwealth Scientific and Industrial Research Organisation,67
217,National Ilan University,28
218,Beijing Institute of Technology,41
219,University of Klagenfurt,6
220,Yandex,36
221,JD.com,41
222,International Institute of Information Technology,20
223,CNRS and University Paris Diderot,47
224,Nanjing Forestry University,41
225,Getulio Vargas Foundation,11
226,Shandong Computer Science Center,41
227,GoDaddy,30
228,Telecom SudParis,47
229,Southwestern University of Finance and Economics,41
230,NTU,31
231,The National University of Ireland,42
232,Queen's University Belfast,54
233,Schloss Dagstuhl Leibniz Center for Informatics,30
234,Aarhus University,63
235,New Mexico State University,51
236,The University of Texas at Austin,51
237,UC San Diego,51
238,Audio Labs Erlangen,30
239,Telekom Innovation Laboratories at Ben Gurion University of the Negev,66
240,Universidad de Sevilla,57
241,ACM,
242,College of Computing,
243,University Konstanz,30
244,htw saar,30
245,University of Arkansas,51
246,Middle East Technical University,24
247,University of Florence,29
248,Amirkabir University of Technology,8
373,Leipzig University,30
249,École nationale supérieure de mécanique et d'aérotechnique,47
250,Solano Labs,30
251,National Distance Education University,57
252,Guangxi Normal University,41
253,Karlstad University,38
254,University of Idaho,51
255,University of Engineering and Technology,
256,Yanshan University,41
257,University of Vermont,51
258,PredictionWorks,30
259,University of Ljubljana,13
260,University of Massachusetts Lowell,51
261,University of Hawaii at Manoa,51
262,University of Maryland,51
263,Beijing University of Posts and Telecommunications,41
264,University of Utah,51
265,Colorado State University,51
266,University of Valladolid,57
267,Hitachi America,51
268,National Cheng Kung University,28
269,The University of Hong Kong,
270,Virginia Tech,51
271,CEA,47
272,NTENT,30
273,University of Warwick,54
274,Bloomberg,51
275,Korea University,7
276,JD.com Silicon Valley Research Center,51
277,Università degli Studi della Calabria,29
278,Drexel University,51
279,Wrapidity,30
280,Complutense University of Madrid,
281,Numenta,51
282,The University of Manchester,54
283,Pantheon Sorbonne University,47
284,Martin Luther University of Halle Wittenberg,30
285,Kiel University,
286,Kansas State University,51
287,University of Genoa,29
288,National University of Ireland,42
289,Irstea Institute,47
290,Tabriz Islamic Art University,8
291,Federal University of Goiás,11
292,IIT Delhi,20
293,Wuhan University of Science and Technology,41
294,Yahoo,51
295,George Mason University,51
296,Qatar Foundation,43
297,University of Queensland,67
298,University of Laghouat,12
299,University of Lugano,56
300,Universidad de Los Andes,60
301,University of Lille,47
302,University of Heidelberg,30
303,Yale University,51
304,Federal University of Ceará,
305,University of Toledo,51
306,University of Calcutta,20
307,Université de Haute Alsace,47
308,University of Strathclyde,54
309,LinkedIn,51
310,University of Groningen,1
311,Dalhousie University,23
312,University of Quebec at Montreal,23
313,Sir Padampat Singhania University,20
314,University of Münster,30
315,La Trobe University,
316,Federal University of Santa Catarina,11
317,Purdue University Indianapolis,30
318,University of Oulu,27
319,Bielefeld University,30
320,University of Clermont Auvergne,47
321,University of Illinois at Urbana Champaign,51
322,University of Applied Sciences and Arts of Southern Switzerland,56
323,DePauw University,51
324,Tsinghua University Beijing,41
325,University of Nevada,51
326,New York University Tandon School of Engineering,51
327,ST Ericsson,51
328,Victoria University of Wellington,22
329,University of Deusto,57
330,ETH Zurich,56
331,University of Michigan,51
332,University of Jyväskylä,27
333,Electricité de France EDF R&D,47
334,Lisbon University/INESC ID,4
335,University of Konstanz,30
336,University of Espirito Santo,11
337,Uppsala University,38
338,École normale supérieure de Cachan,47
339,Georg August University of Göttingen,
340,University of Porto,4
341,Institute of High Performance Computing and Networks,29
342,University of Science and Technology Beijing,41
343,Max Planck Institute for Intelligent Systems,30
344,Oxford University,
345,National Chengchi University,28
346,University of Pennsylvania,51
347,Federal University of Pará,11
348,California State University Los Angeles,51
349,SnappyData Inc,20
350,Ryerson University,23
351,ISTC CNR,29
352,National Kaohsiung First University of Science and Technology,28
353,The University of Oklahoma,51
354,University of São Paulo,11
355,University of Massachusetts Boston,51
356,University of Oxford,54
357,Université Lyon 1,47
358,Pennsylvania State University,51
359,LIASD,47
360,Wuhan University,41
361,Politecnico Di Milano,30
362,University of Liechtenstein,44
363,Max Planck Institute for Informatics,30
364,University of Rome Tor Vergata,29
365,Oak Ridge National Laboratory,51
366,Scuola Normale Superiore,29
367,Anita Borg Institute for Women and Technology,51
368,Northwest University of China,41
369,Ca' Foscari Università Venezia,29
370,Eurlanda,41
371,University of Exeter,54
372,Indian Statistical Institute Kolkata,20
374,Visvesvaraya National Institute of Technology,20
375,University of Côte d'Azur,47
376,Chinese PLA General Hospital,41
377,XAlluxio,51
378,Drew University,51
379,Instituto Militar de Engenharia,11
380,Cisco,51
381,School of Computer Science,
382,LIRS Lyon,47
383,ISISTAN,16
384,University of Ontario,23
385,WhatsApp,51
386,Universidad del Bío Bío,14
387,Unitelma Sapienza University,29
388,Old Dominion University,51
389,Paris Descartes University,47
390,University of Burgundy Franche Comté,47
391,City University of London,54
392,University College,54
393,University of Freiburg,30
394,Nanjing University of Science and Technology,41
395,Paris Dauphine University,47
396,University of Pittsburgh,51
397,Birkbeck,54
398,Tianjin University,41
399,Polytechnic University of Milan,29
400,Tasktop,30
401,Princeton University,51
402,Southwest Jiaotong University,41
403,National Central University,28
404,Wroclaw University of Science and Technology,45
405,Slovak University of Technology in Bratislava,46
406,Grenoble Alpes University,47
407,The University of Southern Queensland,67
408,Conservatoire national des arts et métiers,47
409,University of New Mexico,51
410,New York University Abu Dhabi,55
411,University of Kaiserslautern,30
412,Soochow University,41
413,ISTC,29
414,Université de Franche Comté,47
415,Northwestern Polytechnical University,41
416,Bowling Green State University,51
417,Kyoto University,18
418,IBM,51
419,University of Warsaw,45
420,Ismion,51
421,Australian National University,67
422,The University of Tokyo,18
423,University of Houston,51
424,Eindhoven University of Technology,1
425,Fluminense Federal University,11
426,LAAS,47
427,NVIDIA,51
428,University of Texas at El Paso,51
429,Information Security Sciences Department,51
430,Moscow Institute of Physics and Technology,36
431,University of Lübeck,30
432,University of Bern,56
433,Durham University,54
434,TCS Innovation Labs TRDDC,20
435,University of Poitiers,47
436,University of Zaragoza,57
437,Santa Fe Institute,51
438,University of Nebraska,51
439,University of Ulm,30
440,ZPID,30
441,Clarkson University,51
442,Toulouse 1 University Capitole,47
443,Carl von Ossietzky University of Oldenburg,30
444,Istanbul Technical University,24
445,UC at Santa Barbara,51
446,Ohio State University,51
447,CWI,1
448,IIT Ropar,20
449,Bosch Center for Artificial Intelligence,30
450,Trinity College Dublin,42
451,Ann Arbor,51
452,University of Salerno,29
453,Graz University of Technology,6
454,MathWorks,51
455,Swedish Institute of Computer Science,38
456,Berner Fachhochschule Technik und Informatik,56
457,Saarland University,30
458,Ben Gurion University of the Negev,66
459,Max Planck Institut für Bildungsforschung,30
460,University of North Carolina at Chapel Hill,51
461,University of Illinois at Chicago,51
462,Institute for the German Language,30
463,Gravity R&D,17
464,Juiz de Fora Federal University,
465,International Islamic University at Islamabad,40
466,Swiss Federal Institute of Technology in Lausanne,56
467,ONERA,47
468,Aispire Consulting Ltd.,54
469,Bangor University,54
470,IRISA,47
471,Nagoya University,18
472,James Cook University,67
473,State University of New York,51
474,University of Victoria,23
475,University of Padua,29
476,Xi'an University of Technology,41
477,JD.com AI Research,41
478,University of Essex,54
479,University of Hamburg,30
480,Machine Intelligence Technology,
481,University of Braunschweig,30
482,Imperial College Imperial,54
483,Lenovo,32
484,CNRS,47
485,Universidade Federal do Rio Grande do Sul,11
486,Northeastern University,51
487,The University of Sydney,67
488,Independent Consultant,51
489,Fudan University,41
490,INFOTEC,65
491,Macalester College,51
492,Huawei,41
493,HEC Montreal,23
494,Polytechnic University of Turin,29
495,University of Belgrade,48
496,IMAG,47
497,Royal Institute of Technology,38
498,Wilfrid Laurier University,23
499,Independent consultant,51
500,Shanghai University of Finance and Economics,41
501,University of Lyon,47
502,Hangzhou Dianzi University,41
503,Los Alamos National Laboratory,51
504,Mininglamp Academy of Sciences,30
505,University of Grenoble Alpes,37
506,National Yunlin University of Science and Technology,28
507,University of Cantabria,57
508,Université de Grenoble Alpes,47
509,A*Star,31
510,EURECOM,47
511,New York University,51
512,University of Augsburg,30
513,Harbin Engineering University,41
514,Syracuse University,51
515,University of Antwerp,25
516,University of Rouen Normandy,47
517,Hubei University,41
518,Johannes Kepler University of Linz,6
519,Chongqing University,41
520,Chosun University,7
521,University of Würzburg,30
522,University of Copenhagen,63
523,University of Coimbra,4
524,International Computer Science Institute,30
525,University of Bordeaux 1,47
526,University of Shizuoka,18
527,University of Stirling,54
528,Universidad del Desarrollo,14
529,University of Birmingham,54
530,Xavier University of Louisiana,51
531,Massey University,22
532,Université Paris Diderot,47
533,Shandong University,41
534,Texas Tech University,51
535,Goldsmiths,54
536,Zhejiang University,41
537,Federal University of Rio de Janeiro,11
538,Université Grenoble Alpes,47
539,University of L'Aquila,29
540,University of Connecticut,51
541,University of Pisa,29
542,Leiden University,1
543,University of Arizona,51
544,Prague University of Economics,
545,Simon Fraser University,23
546,Kent State University,51
547,Friedrich Schiller University of Jena,30
548,Edinburgh Napier University,54
549,University of Rennes 1,47
550,University of Bari Aldo Moro,29
551,Dongguk University,7
552,Universidad de León,57
553,Victoria University,67
554,Shanghai Jiao Tong University,41
555,Korea Institute of Science and Technology Information,7
556,Universidad Pública de Navarra,57
557,Uber,51
558,University of Alberta,23
559,Luxembourg Institute of Science Technology,10
560,University of Hong Kong,32
561,University of Sannio,29
562,Aix Marseille University,47
563,INSA Lyon,47
564,École Polytechnique,47
565,Ulster University,54
566,Zuse Institute Berlin,30
567,Humboldt University of Berlin,30
568,Chemnitz University of Technology,30
569,GM,51
570,Senckenberg Biodiversity and Climate Research Centre,30
571,Wikimedia Foundation,51
572,Technical University of Lisbon,4
573,ISMB Turin,
574,The University of Western Australia,67
575,Universidad Simón Bolívar,60
576,Rutgers University,51
577,UC at Los Angeles,51
578,InMobi,30
579,National University of Computer and Emerging Sciences,40
580,Grameen Communications,61
581,University of Notre Dame,51
582,Free University of Bolzano,29
583,M.V. Lomonosov Moscow State University,36
584,Jiangnan University,41
585,San Diego Supercomputer Center,51
586,LIF CNRS Marseille,47
587,LINE Corp.,18
588,Colorado School of Mines,51
589,Polytechnic University of Catalonia,57
590,Maastricht University,1
591,Rice University,51
592,Shenyang Aerospace University,41
593,Oregon Health Science University,51
594,Peking University,41
595,University of Waikato,22
596,National Research Institute for Mathematics and Computer Science,1
597,University of Delaware,51
598,Northumbria University,54
599,Kyoto Sangyo University,18
600,China University of Mining and Technology,41
601,CAS,
602,British University in Dubai,55
603,American University of Sharjah,55
604,FernUniversity of in Hagen,30
605,University of Science and Technology of China,41
606,Federal University of Pernambuco,11
607,IIT Kanpur,20
608,University of Jaén,57
609,University of Miami,51
610,Paul Sabatier University,47
611,University of Tours,47
612,Raytheon BBN Technologies,51
613,Technical University of Athens,5
614,Université du Québec,23
615,Brandeis University,51
616,Spotify,51
617,Ecole Polytechnique Federale de Lausanne,56
618,Wright State University,51
619,Endicott College,51
620,University of Angers,47
621,University at Buffalo,51
622,Ghent University,25
623,Xiaomi,41
624,Pollere,51
625,University of Udine,29
626,NASA Ames Research Center,51
627,Staffordshire University,54
628,Weizmann Institute of Science,66
629,Polytechnic University of Bari,29
630,National Taiwan University of Science and Technology,
631,Vodafone,30
632,National Technical University of Athens,5
633,UC Santa Barbara,51
634,Xidian University,41
635,Mansoura University,34
636,University Ca' Foscari,29
637,University of Texas Health Science Center at Houston,51
638,POSTECH,7
639,Zayed University,55
640,Czech Technical University,33
641,Universidade Federal de Minas Gerais,11
642,Alexandria University,34
643,University of Caen,47
644,Copenhagen Business School,63
645,Universidad Central del Este,64
646,Thales Transportation Systems,30
647,Berlin Institute of Technology,30
648,Dartmouth College,51
649,DeepMind,54
650,Nagaoka University of Technology,18
651,University of Alabama in Huntsville,
652,University of Liverpool,54
653,Universidade Federal do Espírito Santo,11
654,Wright Patterson Air Force Base,51
655,Maebashi Institute of Technology,18
656,University of Milano,29
657,George Washington University,51
658,University of Neuchâtel,56
659,McGill University,23
660,National Chiao Tung University,28
661,Dresden University of Technology,30
662,Ashoka University,20
663,University of Lisbon,4
664,Karlsruhe Institute of Technology,30
665,RIKEN,18
666,National Institute of Astrophysics,65
667,Ohio Center of Excellence in Knowledge enabled Computing,51
668,Free University of Berlin,30
669,Berlin State Library,30
670,Tel Aviv University,66
671,University of Alabama,51
672,University of Tübingen,30
673,Hochschule Darmstadt,30
674,Manchester Metropolitan University,54
675,Technical University of Berlin,30
676,University of Crete,5
677,Hong Kong Polytechnic University,32
678,Leiden Institute of Advanced Computer Science,1
679,Cxense ASA,62
680,Oracle,51
681,University of Tsukuba,18
682,University of Derby,54
683,NUS Graduate School for Integrative Sciences and Engineering,31
684,GESIS,30
685,IIT Kharagpur,20
686,Palo Alto Research Center,51
687,Universidad Nacional de Educación a Distancia,57
688,Universitat Oberta de Catalunya,57
689,Jiangxi University of Finance,41
690,Ural Federal University,36
691,Bankmark,30
692,Chinese University of Hong Kong,32
693,Heidelberg Institute for Theoretical Studies,30
694,Faculty of Computer Science,23
695,School of Computer Science and Technology,41
696,Western Norway University of Applied Sciences,62
697,Aristotle University of Thessaloniki,5
698,Darmstadt University of Applied Sciences,30
699,Johannes Gutenberg University Mainz,30
700,Bayerische Staatsbibliothek,30
701,NICTA,67
702,Heriot Watt University,54
703,UFMG,30
704,MedWhat,30
705,University of Aberdeen,54
706,Universidade Federal de São João del Rei,11
707,Deakin University,67
708,Université Nantes Angers Le Mans,47
709,PayPal,51
710,University of Potsdam,30
711,Hungarian Academy of Sciences,
712,University of Western Ontario,23
713,Comodo Security Solutions,51
714,Université Paris Saclay,47
715,Beijing University of Chemical Technology,41
716,University of León,57
717,University of Tehran,8
718,Federal University of Campina Grande,11
719,University of South Australia,67
720,University of Malaya,3
721,University of Milano Bicocca,29
722,Center for Spoken Language Understanding,
723,University of Lausanne,56
724,Austrian Institute of Technology,6
725,University of South Carolina,51
726,Inception Institute of Artificial Intelligence,55
727,Dankook University,
728,University of Toulouse II,47
729,University of Basel,56
730,National University of Defense Technology,41
731,University of Castilla La Mancha,57
732,Ramon Llull University,57
733,Toshiba Corporation,18
734,University of Sussex,54
735,University of Bedfordshire,54
736,Thales Group,47
737,Bangladesh University of Engineering and Technology,61
738,University of Tokyo,18
739,Trilateral Research and Consulting LLP,54
740,University of Leeds,54
741,Hochschule Hof,30
742,Hefei University of Technology,41
743,KAIST,7
744,Universidad de La Rioja,57
745,University of Trier,30
746,University of Western Brittany,47
747,University of Auckland,22
748,Virginia Commonwealth University,51
749,IMDEA Software Institute,57
750,Software Freedom Law Center in New York,51
1002,Temple University,51
751,Pierre and Marie Curie University,47
752,Hasselt University,25
753,Beijing Institute of Big Data Research,41
754,Bristol University,
755,Canon Innovation Center,51
756,Datometry,51
757,University of Windsor,23
758,University of Kansas,51
759,Charles III University of Madrid,57
760,Irstea,47
761,Central China Normal University,41
762,University of Cologne,30
763,Sapienza University of Rome,29
764,Nanjing University of Aeronautics and Astronautics,41
765,Carleton University,23
766,Ludwig Maximilians University of Munich,30
767,University of Applied Sciences Western Switzerland,56
768,Nantes University,47
769,Edge Hill University,54
770,Universidade Federal de Pernambuco,11
771,MIT,51
772,Birla Institute of Technology and Science,20
773,Islamic Azad University,8
774,Registered Nursing Home Association,54
775,Electrical Engineering Department,
776,HBKU CSE,43
777,Université de Caen Basse Normandie,47
778,Carl Icahn School of Medicine,51
779,Koç University,24
780,University of Sheffield,54
781,Otto von Guericke University Magdeburg,30
782,Canadian Institute of Technology,21
783,ZHAW Zürcher Hochschule für Angewandte Wissenschaften,56
784,Delft University of Technology,1
785,University of Burgos,57
786,School of Mathematical Sciences,67
787,Masaryk University,33
788,University of Calabria,29
789,Qatar Computing Research Institute,43
790,Noah's Ark Lab,30
791,WalmartLabs,51
792,Athens University of Economics and Business,5
793,Marshfield Clinic Research Foundation,51
794,Universidad de Concepción,14
795,North Carolina State University,51
796,University of Paris Saclay,47
797,Sun Yat Sen University,41
798,Pinterest,51
799,Jaume I University,57
800,The George Washington University,51
801,Stack Overflow,51
802,Boise State University,51
803,Georgia State University,51
804,University of Mississippi,51
805,Université Libre de Bruxelles,25
806,Ant Financial Services Group,41
807,Swinburne University of Technology,67
808,Ilmenau University,30
809,University of Orléans,47
810,Academy of Finland,
811,University of Haifa,66
812,Paris Diderot University,47
813,RWTH Aachen,30
814,Brown University,51
815,New Jersey Institute of Technology,51
816,Recruit Holdings Co.,18
817,University of Canterbury,22
818,Georgia Institute of Technology,51
819,Elsevier,1
820,Washington State University,51
821,Anhalt University of Applied Sciences,30
822,Universidad Nacional del Sur,16
823,Universitat Pompeu Fabra,57
824,University of Alcalá,57
825,Norwegian University of Science and Technology,62
826,Apple,51
827,Data Insights Laboratories,51
828,MITZ,30
829,University of Wisconsin,51
830,Payame Noor University,8
831,University of Kiel,30
832,Fraunhofer,30
833,Meltwater,54
834,University of Granada,57
835,University of Colorado Boulder,51
836,University of Sevilla,57
837,INSA de Lyon,47
838,University of Manchester,54
839,Pohang University of Science and Technology,7
840,Illinois Institute of Technology,51
841,Columbia Law School,51
842,Southwest University,41
843,Ricoh Software Research Center,41
844,University of Skövde,
845,University of Marburg,30
846,Florida Institute of Technology,51
847,University College Dublin,42
848,Open University of Israel,66
849,University of Zurich,56
850,Anhui University,41
851,University of Nottingham,54
852,Troo.ly,30
853,University of Brighton,54
854,Siemens Corporate Technology,30
855,Worcester Polytechnic Institute,51
856,UC Santa Cruz,51
857,Mälardalen University,38
858,Workday,51
859,Charles Stuart University,67
860,University of British Columbia,23
861,Clausthal University of Technology,30
862,University of Tennessee,51
863,TIB Leibniz Information Center for Science Technology,30
864,Linköping University,38
865,Liverpool John Moores University,54
866,Tianjin University of Technology,41
867,Claude Bernard University Lyon 1,47
868,Hellenic Open University,5
869,Free University of Amsterdam,1
870,Florida State University,51
871,South China University of Technology,41
872,Yazd University,8
873,Tilburg University,1
874,University of Virginia,51
875,Packet Clearing House,30
876,Instituto Tecnológico de Aeronáutica,11
877,University of Hannover,30
878,Sichuan Normal University,41
879,Katholieke Universiteit Leuven,25
880,CSIRO,67
881,Politecnico di Milano,29
882,Samsung Research America,51
883,Institute of Science and Technology Austria,6
884,Pompeu Fabra University,57
885,Tufts University,51
886,University of Colorado,51
887,University of Southern Denmark,63
888,VISTA Geowissenschaftliche Fernerkundung GmbH,30
889,University of Electronic Science and Technology of China,41
890,University of Edinburgh,54
891,China Academy of Electronics and Information Technology,41
892,University of Massachusetts,51
893,University Pierre et Marie Curie,47
894,UCLA,51
895,Queensland University of Technology,67
896,Adobe,51
897,University of Toulouse,47
898,Nanjing University of Finance and Economics,41
899,École des mines de Nantes,47
900,Ajou University,7
901,rasdaman GmbH,30
902,Hangzhou Normal University,41
903,Fuzhou University,41
904,The University of Tennessee,51
905,B12,51
906,Wuhan University of Technology,41
907,Concordia University,23
908,Qatar University,43
909,SpazioDati,30
910,University of North Carolina,51
911,Computer Science Department,65
912,University of Paris Sud,47
913,Ningbo University,41
914,Argonne National Laboratory,51
915,Osaka University,18
916,University of Massachusetts Amherst,51
917,Democritus University of Thrace,5
918,University of Patras,5
919,University of the Basque Country,57
920,Bytedance Inc,41
921,St. Francis Xavier University,23
922,JD AI Research and Platform,51
923,LIFL Lille,47
924,Ningbo University of Technology,41
925,Data61,67
926,Aberystwyth University,54
927,Alibaba,41
928,Lehigh University,51
929,Tallinn University of Technology,68
930,University of Hagen,30
931,University of Texas at Dallas,51
932,Two Sigma Investments,30
933,iFlyTek Research,41
934,MSR Inria Joint Centre,47
935,École centrale de Lille,47
936,SRI International,51
937,Institut National des Sciences Appliquées de Lyon,47
938,University of Tokushima,18
939,University of Colorado at Boulder,51
940,LIRMM Montpellier,47
941,Education University of Hong Kong,
942,University of Cagliari,29
943,University of A Coruña,57
944,University of the Republic,53
945,Télécom Saint Etienne,47
946,Zhejiang University of Technology,41
947,Higher School of Economics,36
948,Cornell University,51
949,University of Salzburg,6
950,Google,51
951,Rensselaer Polytechnic Institute,51
952,Nanjing Normal University,41
953,University of Texas Health Science Center,51
954,Roma Tre University,29
955,University of Göttingen,30
956,Pablo de Olavide University,57
957,Heidelberg University,30
958,University of Helsinki,27
959,FX Palo Alto Laboratory,51
960,Xuzhou University of Technology,41
961,Hanyang University,7
962,University of Tartu,68
963,Università Roma Tre,29
964,Hasso Plattner Institute,30
965,Lisbon Technical University,4
966,University of Guanajuato,65
967,National Autonomous University of Mexico,65
968,University of Southampton,54
969,Heinrich Heine University of Düsseldorf,30
970,University of Düsseldorf,30
971,Tencent,41
972,INESC ID / Instituto Superior Técnico,4
973,Technical University of Madrid,57
974,École Polytechnique de Paris,
975,Sungkyunwwan University,7
976,Sharif University of Technology,8
977,Complexity Science Hub Vienna,6
978,NHN Institute of The Next Network,7
979,Université de Technologie de Compiègne,47
980,Williams College,51
981,University of Georgia,51
982,Keio University,18
983,National Research Council,29
984,Baylor University,51
985,Lumière University Lyon 2,47
986,University Lyon 1,47
987,Wandoujia Lab,41
988,AI2,51
989,Université de Nantes,47
990,Université de Tours,47
991,Sapienza Università di Roma,29
992,University of Glasgow,54
993,University of Rome,29
994,Kunsan National University,7
995,Thomson Reuters,54
996,eScience Group,
997,Philips Research North America,51
998,King Abdullah University of Science Technology,37
999,Florida Atlantic University,51
1000,University of Burgundy,47
1001,University of Oldenburg,30
1003,University of Calgary,23
1004,University of Texas at Austin,51
1005,Waseda University,18
1006,University of Bristol,54
1007,Singapore Management University,31
1008,University of South Florida,51
1009,University of Eastern Piedmont,29
1010,Nanyang Technological University,31
1011,Kyung Hee University,7
1012,Samsung Electronic,51
1013,Sun Yat sen University,41
1014,Beijing Forestry University,41
1015,SAP,30
1016,Universidade Nova de Lisboa,4
1017,University of Malaga,57
1018,University of Canberra,67
1019,University of Mainz,30
1020,De Montfort University,54
1021,Radboud University Nijmegen,1
1022,IIT Patna,20
1023,Southern Univerisity of Science and Technology,41
1024,University of Bologna,29
1025,Carlos III University of Madrid,
1026,Machine Intelligence Research Labs,51
1027,University of Mannheim,30
1028,UC Los Angeles,51
1029,University of Washington,51
1030,Harokopio University of Athens,5
1031,Kean University,51
1032,Paderborn University,30
1033,École Polytechnique Fédérale de Lausanne,56
1034,University of Montpellier,47
1035,Yamaguchi University,18
1036,Computer History Museum,51
1037,Darmstadt University of Technology,30
1038,Washington University in St. Louis,51
1039,Vanderbilt University,51
1040,Telefonica Research,57
1041,Université Côte d'Azur,47
1042,Chalmers University of Technology,38
1043,National Institute of Informatics,18
1044,National Institutes of Health,51
1045,Universitat Illes BalearsPalmaSpain,57
1046,Federal University of Technology Paraná,11
1047,Upwork,30
1048,University of Grenoble,47
1049,University of Southern California,51
1050,Tencent AI Lab,41
1051,University College of Wales,54
1052,Ruhr University Bochum,30
1053,Skolkovo Institute of Science and Technology,36
1054,Rovira i Virgili University,57
1055,University of Minnesota,51
1056,University of Trento,29
1057,Tunis El Manar University,50
1058,Vrije Universiteit Brussel,25
1059,US Army Engineer Research and Development Center,51
1060,NYU Polytechnic School of Engineering,
1061,Università di Trento,29
1062,Technion Israel Institute of Technology,66
1063,China Electric Power Research Institute,41
1064,Cloudera,51
1065,University of Utrecht,1
1066,Nuro,51
1067,University of the Balearic Islands,
1068,University of Leipzig,30
1069,National Research University Higher School of Economics,36
1070,Corvinus University of Budapest,17
1071,Montpellier 2 University,47
1072,Academy of Mathematics and Systems Science,
1073,Technical University of Eindhoven,1
1074,Amazon,51
1075,University of Texas at Arlington,51
1076,University of Missouri Kansas City,51
1077,University of Southern Brittany,47
1078,Università degli Studi di Milano,29
1079,HP Labs,51
1080,UI Wizards,51
1081,Lawrence Berkeley National Lab,51
1082,University of East Anglia,54
1083,Bauhaus University,30
1084,National University of Singapore,31
1085,NTU Athens,5
1086,Qihoo 360,41
1087,University of Illinois,51
1088,Changshu Institute of Technology,41
1089,Megagon Labs,51
1090,Chungbuk National University,7
1091,National Tsing Hua University,28
1092,AT&T,51
1093,California Polytechnic State University,51
1094,Universitat Rovira i Virgili,57
1095,State Key Laboratory of Computer Science,41
1096,University of Chile,14
1097,Manouba University,50
1098,Universidade de São Paulo,11
1099,University of Ulster,54
1100,East China Normal University,41
1101,Santa Clara University,51
1102,Boston University,51
1103,Charles University in Prague,33
1104,Stevens Institute of Technology,51
1105,Babeş Bolyai University,52
1106,Lancaster University,54
1107,Purdue University,51
1108,École Normale Supérieure,47
1109,Wikimedia Deutschland,30
1110,INRIA,47
1111,University of Seville,57
1112,The University of Kansas,51
1113,Computer Research Institute of Montreal,23
1114,CNIT UdR Catania,29
1115,Missouri University of Science Technology,51
1116,Aalborg University,63
1117,IIT Gandhinagar,20
1118,Universidad de Alicante,57
1119,Pacific Northwest National Laboratory,51
1120,University of New Hampshire,51
1121,Cardiff University,54
1122,School of Information and Computer Science,51
1123,Federal University of Paraná,11
1124,University of Manitoba,23
1125,Hunan University,41
1126,China University of Geosciences,41
1127,Seoul National University,7
1128,Mediterranea University of Reggio Calabria,29
1129,Sofia University,49
1130,Université Paris Est,47
1131,University of Macedonia,5
1132,Pontificia Universidad Catolica de Chile,30
1133,University of Technology of Compiègne,47
1134,University of Sfax,50
1135,Bell Labs,51
1136,University of North Carolina at Greensboro,51
1137,Lebanese American University,
1138,Central University of Finance and Economics,41
1139,Naval Academy Research Institute,47
1140,Versailles Saint Quentin en Yvelines University,47
1141,The University of New South Wales,67
1142,Indian Institute of Science,20
1143,Ghulam Ishaq Khan Institute of Engineering Sciences and Technology,40
1144,University of Adelaide,67
1145,Bauhaus University of Weimar,30
1146,University of Vienna,6
1147,University of Peloponnese,5
1148,Fluid Operations AG,30
1149,National Taiwan University,28
1150,University of Ottawa,23
1151,Gaston Berger University,26
1152,Zurich University of Applied Sciences,56
1153,The University of Iowa,51
1154,University of Portsmouth,54
1155,University of Minnesota Twin Cities,51
1156,Deutscher Wetterdienst,30
1157,Dalian Maritime University,41
1158,Umm Al Qura University,37
1159,Arizona State University,51
1160,Nanjing University of Posts and Telecommunications,41
1161,The Pennsylvania State University,51
1162,Jozef Stefan Institute,13
1163,Isfahan University of Technology,8
1164,MITRE Corporation,30
1165,Blaise Pascal University,47
1166,Dalian University of Technology,41
1167,UC Berkeley,51
1168,University of Minho,4
1169,Michigan State University,51
1170,University of Wisconsin Madison,51
1171,Florida International University,51
1172,UNAM University,65
1173,Bilkent University,24
1174,University of the Faroe Islands,
1175,VMware,51
1176,Nantong University,41
1177,University of the Sunshine Coast,67
1178,Institut national des sciences appliquées de Lyon,47
1179,Griffith University,67
1180,Loughborough University,54
1181,Abdullah Gül University,24
1182,School of Electrical Engineering,48
1183,The Australian E health Research Centre,67
1184,Allen Institute for Artificial Intelligence,51
1185,Software AG,30
1186,Polytechnic University of Valencia,57
1187,Technical University of Crete,5
1188,University of Geneva,56
1189,Federal University of Minas Gerais,11
1190,Iowa State University,51
1191,DFKI,30
1192,University of Novi Sad,48
1193,Artois University,47
1194,Europe Policy Council chair at ACM,30
1195,NTT Service Evolution Laboratories,18
1196,University of Kalyani,20
1197,Rennes University,47
1198,Catholic University of Leuven,25
1199,Ben Gurion University,66
1200,Zhejiang Normal University,
1201,Warsaw University of Technology,45
1202,VU University Amsterdam,1
1203,Carnegie Mellon University Qatar,43
1204,National ICT Australia,67
1205,Improving clinical decisions using correspondences within and across electronic health records,30
1206,JD AI Research,41
1207,ERNET,20
1208,Meiji University,18
1209,University of New Brunswick,23
1210,Tencent Medical AI Lab,51
1211,University of Bamberg,30
1212,Technische Hochschule Köln,30
1213,University of Fribourg,56
1214,University of Central Florida,51
1215,University of Bari,29
1216,Telefonica I+D,57
1217,Columbia University,51
1218,Instituto Politécnico Nacional,65
1219,City University of Hong Kong,32
1220,University of Bergen,62
1221,University of Athens,5
1222,University of Bath,54
1223,King's College London,54
1224,Henri Poincaré University,47
1225,University of Kentucky,51
1226,Poznan University of Technology,45
1227,Universiteit Gent,
1228,Universitat Politécnica de Catalunya,57
1229,Athena Research Center,
1230,Toyota Technological Institute at Chicago,51
1231,Queen's University,23
1232,University of Verona,29
1233,University of Erlangen Nuremberg,30
1234,University of Waterloo,23
1235,Indian Institute of Management Lucknow,20
1236,Machine Learning Group,
1237,University of Wisconsin Milwaukee,51
1238,Capital One,51
1239,Etsy,51
1240,German Aerospace Center,30
1241,Jilin University,41
1242,Emirates College of Technology,55
1243,PUC Rio,11
1244,University of North Texas,51
1245,Tsinghua University,41
1246,National Laboratory of Scientific Computing,11
1247,Newcastle University,54
1248,University of Isfahan,8
1249,Nvidia Corporation,41
1250,University of Stuttgart,30
1251,Birzeit University,58
1252,University of Tennessee at Martin,51
1253,University of Bayreuth,30
1254,University of Surrey,54
1255,University of Toulouse 2 Jean Jaurès,47
1256,Nuance,30
1257,Leibniz Institute for Psychology Information,30
1258,Mihai Capotă,30
1259,Politecnico di Torino,29
1260,University of Western Sydney,67
1261,Iwate Prefectural University,18
1262,University Grenoble Alpes,47
1263,University of Cluj Napoca,52
1264,The University of Sheffield,54
1265,IT University of Copenhagen,63
1266,EPFL,56
1267,TED University,24
1268,University of London,
1269,Bowdoin College,51
1270,Université catholique de Louvain,25
1271,Duke University,51
1272,University of Passau,30
1273,INSA Rennes,47
1274,Priberam Informatica S.A.,4
1275,Center of Excellence for Research,29
1276,University of Tampere,27
1277,University Politehnica of Bucharest,52
1278,Imperial College London,54
1279,Télécom Paris,47
1280,XING AG,30
1281,Dstillery,51
1282,University of Regina,23
1283,UC Irvine,51
1284,University of Nantes,47
1285,Institute of High Performance Computing,30
1286,Higher Institute of Multimedia Arts of Manouba,50
1287,Indiana University Bloomington,51
1288,Portland State University,51
1289,Baldwin Wallace University,51
1290,University of Cincinnati,51
1291,FUMEC University,11
1292,Disney,51
1293,Brandenburg University of Technology,30
1294,UC at Berkeley,
1295,LogicBlox,51
1296,TangoMe Inc,51
1297,University of Twente,1
1298,University of Turin,29
1299,Indiana University,51
1300,University of Alabama at Birmingham,51
1301,Dublin City University,42
1302,Université Lille 1,47
1303,Texas A&M University,51
1304,Dept. of Electrical Engineering and Computer Science,51
1305,University of Manouba,50
1306,Federal University of São João del Rei,11
1307,Verizon Media,47
1308,Universidade do Minho Law School,4
1309,Jadavpur University,20
1310,University of Oviedo,57
1311,Eberhard Karls University of Tübingen,
1312,Kelley School of Business,51
1313,Clari,51
1314,University of Trieste,29
1315,CNAM Laboratoire Cédric,47
1316,The Hong Kong Polytechnic University,32
1317,Xi'an Jiaotong University,41
1318,University College Cork,42
1319,Atomic Energy and Alternative Energies Commission,47
1320,Cologne Institute for Information Systems,30
1321,Beihang University,41
1322,University of the Aegean,
1323,Beijing Jiaotong University,41
1324,Spanish National Research Council,57
1325,The Chinese University of Hong Kong,32
1326,University of Cambridge,54
1327,The University of Lahore,40
1328,Hamburg University of Technology,30
1329,University of Lorraine,47
1330,Tableau,51
1331,Twitter,51
1332,Université de Caen Normandie,47
1333,University of Jordan,
1334,University of Leicester,54
1335,UC Davis Genome Center,51
1336,Istituto di Scienza e Tecnologie dell'Informazione,29
1337,Harvard University,51
1338,Université de Paris,47
1339,University of Paderborn,30
1340,German Research Center for Artificial Intelligence,30
1341,Agency for Science,31
1342,Nankai University,41
1343,Sultan Moulay Slimane University,9
1344,Key Laboratory of Intelligent Processing,41
1345,University of Technology Sydney,67
1346,University of St. Gallen,56
1347,Leibniz University of Hannover,30
1348,Institut polytechnique de Grenoble,47
1349,Indraprastha Institute of Information Technology Delhi,20
1350,Stockholm University,38
1351,University of San Francisco,51
1352,Sokendai University,18
1353,National Institute of Advanced Industrial Science and Technology,18
1354,University of Paris Est,47
1355,Sichuan University,41
1356,University of Innsbruck,6
1357,Environmental Systems Research Institute,51
1358,U.S. Census Bureau,51
1359,Singapore University of Technology and Design,31
1360,University of Sydney,67
1361,National University of Distance Education,57
1362,The University of Auckland,22
1363,The Ohio State University,51
1364,Universidad de Chile,14
1365,University of Reading,54
1366,Georgetown University,51
1367,Xerox,51
1368,IIT Bombay,20
1369,Missouri University of Science and Technology,51
1370,ENS Cachan,47
1371,Stanford University,51
1372,Universitat Politècnica de Valencia,57
1373,Nanjing University,41
1374,ITT Kanpur,20
1375,University of Chicago,51
1376,West Virginia University,51
1377,Institute of Mathematical Sciences,20
1378,Intel,51
1379,The University of Queensland,67
1380,University of Newcastle,67
1381,Johns Hopkins University,51
1382,Université de Mons,25
1383,Pontifical Catholic University of Rio de Janeiro,11
1384,Databricks,1
1385,Rupert Labs,51
1386,University of Sao Paulo,11
1387,San Jose State University,51
1388,Carnegie Mellon University,51
1389,Bogaziçi University,24
1390,University of Rochester,51
1391,Netflix,51
1392,Hamad bin Khalifa University,43
1393,Macqaurie University,67
1394,Reutlingen University,
1395,KTH Royal Institute of Technology,38
1396,University of Dundee,54
1397,DePaul University,51
1398,UC Riverside,51
1399,Machine Learning Department,
1400,University of Southern Queensland,67
1401,Careem Networks GmbH,30
1402,College of William and Mary,51
1403,Clemson University,51
1404,Foundation for Research Technology Hellas,5
1405,University of Salamanca,57
1406,Université libre de Bruxelles,25
1407,University of Macau,35
1408,Anhui USTC iFLYTEK Company,41
1409,TH Köln,30
1410,Universidad de Santiago de Chile,30
1411,Université de Sherbrooke,
1412,Beuth University of Applied Sciences,30
1413,University of Bremen,30
1414,Shenyang Ligong University,41
1415,Oregon State University,51
1416,Guangzhou University,41
1417,University of Lincoln,54
1418,Zhejiang Gongshang University,41
1419,Telecom Management SudParis,47
1420,University of Avignon,47
1421,Social Shaping Research Ltd,30
1422,Tongji University,41
1423,Cirad,47
1424,University Pau Pays Adour,47
1425,University of Hanover,30
1426,Tokyo Institute of Technology,
1427,University of Brasília,11
1428,Auburn University,51
1429,NUI Galway,42
1430,University of Málaga,57
1431,Kunming University of Science and Technology,41
1432,Technical University of Valencia,57
1433,Université de la Manouba,50
1434,University of Arkansas at Little Rock,51
1435,Université Toulouse III Paul Sabatier,47
1436,City University of New York,51
1437,NetApp Deutschland GmbH,30
1438,Nanjing University of Information Science Technology,
1439,Goethe University of Frankfurt,30
1440,American University of Beirut,59
1441,Swansea University,54
1442,Information Technological University,40
1443,University Clermont Auvergne,47
1444,Hong Kong University of Science and Technology,32
1445,Neville Neil Consulting,51
1446,School of Education,
1447,Lawrence Livermore National Laboratory,51
1448,SAS,51
1449,School of Electro Mechanical Engineering,41
1450,Technische University of Ilmenau,30
1451,Università di Modena e Reggio Emilia,29
1452,California Institute of Technology,51
1453,Khalifa University,55
1454,Vienna University of Economics and Business,6
1455,University of Piraeus,5
1456,Chalmers and the University of Gothenburg,38
1457,Nova University of Lisbon,4
1458,University of Carthage,
1459,University of Pau and Pays de l'Adour,47
1460,University of Florida,51
1461,University of La Rochelle,47
1462,University of Melbourne,67
1463,University of Namur,25
1464,IRIT,47
1465,Harvey Mudd College,51
1466,Queen Mary University of London,54
1467,Haverford College,51
1468,Hewlett Packard,51
1469,University of Rome Unitelma Sapienza,29
1470,University of Toronto,23
1471,University of Duisburg Essen,30
1472,Tencent Company,41
1473,North China University of Technology,41
1474,Hofstra University,51
1475,Robert Gordon University,54
1476,Université Paris Sud,47
1477,University of Otago,22
1478,Nara Institute of Science and Technology,18
1479,Flinders University,67
1480,University of Bergamo,29
1481,Bretagne Loire University,47
1482,School of Electronics and Computer Science,
1483,Universitat Politècnica de Catalunya,57
1484,Lund University,38
1485,East Tennessee State University,51
1486,University of Siegen,30
1487,Cray,
1488,Universidad Andres Bello,14
1489,Universiti Sains Malaysia,3
1490,U.S. Army Research Laboratory,51
1491,Iwate University,18
1492,University of the West of England,54
1493,Royal Holloway University of London,54
1494,University of North Carolina at Charlotte,51
1495,Centre for Research and Technology Hellas,
1496,Brigham Young University,51
1497,University of Santiago de Compostela,57
1498,Thapar University,20
1499,Jean Monnet University,47
1500,Maynooth University,42
1501,Thapar Institute of Engineering and Technology,20
1502,University of Bonn,30
1503,Bar Ilan University,66
1504,Baidu,41
1505,University of Western Australia,67
1506,University of Modena and Reggio Emilia,29
1507,Federal University of Espírito Santo,
1508,University of Kassel,30
1509,MODUL University Vienna,6
1510,University of Maryland at College Park,
1511,Instituto Universitário de Lisboa,4
1512,University of Caen Normandy,47
1513,University Of Pennsylvania,
1514,Academia Sinica,28
1515,Wayne State University,51
1516,The City University of New York,51
