jkey,sname,title,volume,issue,year
1,TKDE,IEEE Trans. Knowl. Data Eng.,28,6,2016
2,PVLDB,PVLDB,9,4,2015
3,VLDB,VLDB J.,21,1,2012
4,KAIS,Knowl. Inf. Syst.,30,2,2012
5,PVLDB,PVLDB,7,1,2013
6,PVLDB,PVLDB,6,8,2013
7,IS,Inf. Syst.,86,,2019
8,IS,Inf. Syst.,49,,2015
9,IS,Inf. Syst.,37,5,2012
10,PVLDB,PVLDB,6,3,2013
11,KAIS,Knowl. Inf. Syst.,54,1,2018
12,DBSK,Datenbank-Spektrum,11,1,2011
13,KAIS,Knowl. Inf. Syst.,33,3,2012
14,CACM,Commun. ACM,61,5,2018
15,TODS,ACM Trans. Database Syst.,41,3,2016
16,TKDE,IEEE Trans. Knowl. Data Eng.,28,1,2016
17,CACM,Commun. ACM,59,11,2016
18,KAIS,Knowl. Inf. Syst.,52,3,2017
19,DEBU,IEEE Data Eng. Bull.,41,4,2018
20,KAIS,Knowl. Inf. Syst.,46,3,2016
21,VLDB,VLDB J.,27,6,2018
22,TKDE,IEEE Trans. Knowl. Data Eng.,29,9,2017
23,DBSK,Datenbank-Spektrum,16,3,2016
24,KAIS,Knowl. Inf. Syst.,60,1,2019
25,DEBU,IEEE Data Eng. Bull.,42,2,2019
26,CACM,Commun. ACM,57,6,2014
27,IS,Inf. Syst.,44,,2014
28,VLDB,VLDB J.,25,5,2016
29,TKDE,IEEE Trans. Knowl. Data Eng.,29,4,2017
30,PVLDB,PVLDB,8,13,2015
31,TODS,ACM Trans. Database Syst.,42,1,2017
32,IS,Inf. Syst.,78,,2018
33,PVLDB,PVLDB,7,6,2014
34,TKDE,IEEE Trans. Knowl. Data Eng.,29,10,2017
35,TKDE,IEEE Trans. Knowl. Data Eng.,30,2,2018
36,SIGMOD,SIGMOD Record,45,4,2016
37,TODS,ACM Trans. Database Syst.,39,2,2014
38,IS,Inf. Syst.,36,7,2011
39,PVLDB,PVLDB,12,8,2019
40,TKDE,IEEE Trans. Knowl. Data Eng.,31,12,2019
41,VLDB,VLDB J.,26,3,2017
42,CACM,Commun. ACM,56,3,2013
43,CACM,Commun. ACM,62,8,2019
44,KAIS,Knowl. Inf. Syst.,59,3,2019
45,TKDE,IEEE Trans. Knowl. Data Eng.,24,2,2012
46,PVLDB,PVLDB,8,9,2015
47,DEBU,IEEE Data Eng. Bull.,36,2,2013
48,TKDE,IEEE Trans. Knowl. Data Eng.,25,12,2013
49,PVLDB,PVLDB,4,10,2011
50,PVLDB,PVLDB,11,5,2018
51,PVLDB,PVLDB,9,12,2016
52,TKDE,IEEE Trans. Knowl. Data Eng.,31,5,2019
53,SIGMOD,SIGMOD Record,46,2,2017
54,KAIS,Knowl. Inf. Syst.,37,2,2013
55,VLDB,VLDB J.,23,2,2014
56,PVLDB,PVLDB,7,14,2014
57,TKDE,IEEE Trans. Knowl. Data Eng.,26,11,2014
58,PVLDB,PVLDB,12,3,2018
59,CACM,Commun. ACM,56,8,2013
60,DEBU,IEEE Data Eng. Bull.,39,3,2016
61,KAIS,Knowl. Inf. Syst.,50,2,2017
62,DBSK,Datenbank-Spektrum,13,2,2013
63,KAIS,Knowl. Inf. Syst.,56,2,2018
64,IS,Inf. Syst.,36,2,2011
65,TKDE,IEEE Trans. Knowl. Data Eng.,30,7,2018
66,KAIS,Knowl. Inf. Syst.,41,1,2014
67,VLDB,VLDB J.,22,4,2013
68,TKDE,IEEE Trans. Knowl. Data Eng.,24,7,2012
69,CACM,Commun. ACM,62,3,2019
70,IS,Inf. Syst.,65,,2017
71,KAIS,Knowl. Inf. Syst.,27,3,2011
72,TODS,ACM Trans. Database Syst.,36,1,2011
73,SIGMOD,SIGMOD Record,42,3,2013
74,KAIS,Knowl. Inf. Syst.,43,2,2015
75,CACM,Commun. ACM,58,12,2015
76,TKDE,IEEE Trans. Knowl. Data Eng.,26,8,2014
77,TKDE,IEEE Trans. Knowl. Data Eng.,25,5,2013
78,IS,Inf. Syst.,57,,2016
79,CACM,Commun. ACM,59,4,2016
80,KAIS,Knowl. Inf. Syst.,28,1,2011
81,TODS,ACM Trans. Database Syst.,37,4,2012
82,PVLDB,PVLDB,11,10,2018
83,SIGMOD,SIGMOD Record,44,1,2015
84,TODS,ACM Trans. Database Syst.,44,4,2019
85,CACM,Commun. ACM,60,11,2017
86,DEBU,IEEE Data Eng. Bull.,40,1,2017
87,VLDB,VLDB J.,23,4,2014
88,KAIS,Knowl. Inf. Syst.,47,3,2016
89,CACM,Commun. ACM,62,5,2019
90,CACM,Commun. ACM,55,10,2012
91,KAIS,Knowl. Inf. Syst.,34,3,2013
92,TKDE,IEEE Trans. Knowl. Data Eng.,27,12,2015
93,KAIS,Knowl. Inf. Syst.,38,2,2014
94,VLDB,VLDB J.,20,3,2011
95,TKDE,IEEE Trans. Knowl. Data Eng.,28,11,2016
96,CACM,Commun. ACM,60,2,2017
97,VLDB,VLDB J.,24,2,2015
98,PVLDB,PVLDB,10,11,2017
99,IS,Inf. Syst.,60,,2016
100,CACM,Commun. ACM,59,9,2016
101,TKDE,IEEE Trans. Knowl. Data Eng.,27,8,2015
102,PVLDB,PVLDB,9,14,2016
103,IS,Inf. Syst.,73,,2018
104,KAIS,Knowl. Inf. Syst.,28,3,2011
105,KAIS,Knowl. Inf. Syst.,57,2,2018
106,CACM,Commun. ACM,61,10,2018
107,PVLDB,PVLDB,5,11,2012
108,KAIS,Knowl. Inf. Syst.,35,1,2013
109,IS,Inf. Syst.,52,,2015
110,TKDE,IEEE Trans. Knowl. Data Eng.,27,3,2015
111,PVLDB,PVLDB,5,5,2012
112,KAIS,Knowl. Inf. Syst.,29,1,2011
113,TKDE,IEEE Trans. Knowl. Data Eng.,31,7,2019
114,TODS,ACM Trans. Database Syst.,38,4,2013
115,TKDE,IEEE Trans. Knowl. Data Eng.,25,2,2013
116,DEBU,IEEE Data Eng. Bull.,34,1,2011
117,TKDE,IEEE Trans. Knowl. Data Eng.,26,5,2014
118,CACM,Commun. ACM,54,2,2011
119,TODS,ACM Trans. Database Syst.,37,1,2012
120,SIGMOD,SIGMOD Record,43,3,2014
121,PVLDB,PVLDB,4,12,2011
122,CACM,Commun. ACM,60,7,2017
123,KAIS,Knowl. Inf. Syst.,44,2,2015
124,PVLDB,PVLDB,4,7,2011
125,PVLDB,PVLDB,10,7,2017
126,TKDE,IEEE Trans. Knowl. Data Eng.,23,4,2011
127,IS,Inf. Syst.,81,,2019
128,CACM,Commun. ACM,57,8,2014
129,PVLDB,PVLDB,13,3,2019
130,IS,Inf. Syst.,37,7,2012
131,CACM,Commun. ACM,55,5,2012
132,DBSK,Datenbank-Spektrum,17,3,2017
133,TKDE,IEEE Trans. Knowl. Data Eng.,29,1,2017
134,IS,Inf. Syst.,37,2,2012
135,DEBU,IEEE Data Eng. Bull.,37,2,2014
136,KAIS,Knowl. Inf. Syst.,55,1,2018
137,PVLDB,PVLDB,10,2,2016
138,CACM,Commun. ACM,54,7,2011
139,DBSK,Datenbank-Spektrum,14,2,2014
140,CACM,Commun. ACM,58,6,2015
141,DBSK,Datenbank-Spektrum,18,1,2018
142,DEBU,IEEE Data Eng. Bull.,35,4,2012
143,TKDE,IEEE Trans. Knowl. Data Eng.,23,9,2011
144,TODS,ACM Trans. Database Syst.,42,3,2017
145,PVLDB,PVLDB,8,1,2014
146,VLDB,VLDB J.,28,1,2019
147,KAIS,Knowl. Inf. Syst.,31,2,2012
148,CACM,Commun. ACM,57,3,2014
149,KAIS,Knowl. Inf. Syst.,53,3,2017
150,TODS,ACM Trans. Database Syst.,43,1,2018
151,PVLDB,PVLDB,7,8,2014
152,PVLDB,PVLDB,9,9,2016
153,VLDB,VLDB J.,27,3,2018
154,TKDE,IEEE Trans. Knowl. Data Eng.,29,6,2017
155,PVLDB,PVLDB,7,3,2013
156,PVLDB,PVLDB,6,10,2013
157,SIGMOD,SIGMOD Record,40,2,2011
158,KAIS,Knowl. Inf. Syst.,48,1,2016
159,PVLDB,PVLDB,8,10,2015
160,TKDE,IEEE Trans. Knowl. Data Eng.,31,2,2019
161,IS,Inf. Syst.,38,5,2013
162,KAIS,Knowl. Inf. Syst.,40,3,2014
163,VLDB,VLDB J.,21,6,2012
164,SIGMOD,SIGMOD Record,47,2,2018
165,CACM,Commun. ACM,58,1,2015
166,VLDB,VLDB J.,28,6,2019
167,PVLDB,PVLDB,8,6,2015
168,KAIS,Knowl. Inf. Syst.,61,1,2019
169,TKDE,IEEE Trans. Knowl. Data Eng.,30,4,2018
170,IS,Inf. Syst.,41,,2014
171,IS,Inf. Syst.,54,,2015
172,VLDB,VLDB J.,28,3,2019
173,TODS,ACM Trans. Database Syst.,39,4,2014
174,SIGMOD,SIGMOD Record,46,4,2017
175,PVLDB,PVLDB,10,4,2016
176,IS,Inf. Syst.,67,,2017
177,KAIS,Knowl. Inf. Syst.,49,1,2016
178,CACM,Commun. ACM,58,3,2015
179,TKDE,IEEE Trans. Knowl. Data Eng.,23,1,2011
180,DBSK,Datenbank-Spektrum,15,2,2015
181,PVLDB,PVLDB,7,11,2014
182,VLDB,VLDB J.,29,1,2020
183,CACM,Commun. ACM,54,11,2011
184,TKDE,IEEE Trans. Knowl. Data Eng.,32,2,2020
185,VLDB,VLDB J.,25,2,2016
186,TKDE,IEEE Trans. Knowl. Data Eng.,29,12,2017
187,PVLDB,PVLDB,11,2,2017
188,CACM,Commun. ACM,56,5,2013
189,DEBU,IEEE Data Eng. Bull.,38,2,2015
190,CACM,Commun. ACM,55,7,2012
191,DEBU,IEEE Data Eng. Bull.,35,1,2012
192,TKDE,IEEE Trans. Knowl. Data Eng.,30,10,2018
193,TODS,ACM Trans. Database Syst.,40,2,2015
194,DBSK,Datenbank-Spektrum,12,1,2012
195,KAIS,Knowl. Inf. Syst.,48,3,2016
196,VLDB,VLDB J.,22,1,2013
197,DBSK,Datenbank-Spektrum,18,3,2018
198,TKDE,IEEE Trans. Knowl. Data Eng.,24,4,2012
199,KAIS,Knowl. Inf. Syst.,26,2,2011
200,KAIS,Knowl. Inf. Syst.,62,1,2020
201,PVLDB,PVLDB,9,6,2016
202,DBSK,Datenbank-Spektrum,19,1,2019
203,IS,Inf. Syst.,38,7,2013
204,TODS,ACM Trans. Database Syst.,36,3,2011
205,DEBU,IEEE Data Eng. Bull.,36,4,2013
206,TKDE,IEEE Trans. Knowl. Data Eng.,23,6,2011
207,VLDB,VLDB J.,21,3,2012
208,CACM,Commun. ACM,59,1,2016
209,PVLDB,PVLDB,6,12,2013
210,DBSK,Datenbank-Spektrum,11,3,2011
211,IS,Inf. Syst.,38,2,2013
212,KAIS,Knowl. Inf. Syst.,54,3,2018
213,CACM,Commun. ACM,62,11,2019
214,PVLDB,PVLDB,8,3,2014
215,KAIS,Knowl. Inf. Syst.,39,2,2014
216,TKDE,IEEE Trans. Knowl. Data Eng.,24,10,2012
217,VLDB,VLDB J.,22,6,2013
218,TKDE,IEEE Trans. Knowl. Data Eng.,30,9,2018
219,SIGMOD,SIGMOD Record,48,2,2019
220,IS,Inf. Syst.,59,,2016
221,KAIS,Knowl. Inf. Syst.,32,2,2012
222,SIGMOD,SIGMOD Record,41,2,2012
223,PVLDB,PVLDB,9,1,2015
224,KAIS,Knowl. Inf. Syst.,42,1,2015
225,TKDE,IEEE Trans. Knowl. Data Eng.,25,7,2013
226,KAIS,Knowl. Inf. Syst.,51,2,2017
227,PVLDB,PVLDB,12,11,2019
228,CACM,Commun. ACM,60,4,2017
229,KAIS,Knowl. Inf. Syst.,41,3,2014
230,CACM,Commun. ACM,57,10,2014
231,PVLDB,PVLDB,5,7,2012
232,TKDE,IEEE Trans. Knowl. Data Eng.,27,5,2015
233,IS,Inf. Syst.,62,,2016
234,TODS,ACM Trans. Database Syst.,44,1,2019
235,TKDE,IEEE Trans. Knowl. Data Eng.,24,9,2012
236,TKDE,IEEE Trans. Knowl. Data Eng.,28,8,2016
237,IS,Inf. Syst.,75,,2018
238,PVLDB,PVLDB,11,12,2018
239,CACM,Commun. ACM,59,6,2016
240,CACM,Commun. ACM,61,2,2018
241,CACM,Commun. ACM,56,11,2013
242,IS,Inf. Syst.,88,,2020
243,PVLDB,PVLDB,5,2,2011
244,SIGMOD,SIGMOD Record,45,1,2016
245,KAIS,Knowl. Inf. Syst.,36,1,2013
246,PVLDB,PVLDB,11,7,2018
247,DEBU,IEEE Data Eng. Bull.,41,1,2018
248,IS,Inf. Syst.,36,4,2011
249,CACM,Commun. ACM,54,4,2011
250,IS,Inf. Syst.,83,,2019
251,CACM,Commun. ACM,60,9,2017
252,KAIS,Knowl. Inf. Syst.,58,2,2019
253,KAIS,Knowl. Inf. Syst.,45,2,2015
254,DEBU,IEEE Data Eng. Bull.,40,3,2017
255,CACM,Commun. ACM,55,2,2012
256,KAIS,Knowl. Inf. Syst.,60,3,2019
257,KAIS,Knowl. Inf. Syst.,35,3,2013
258,TODS,ACM Trans. Database Syst.,38,1,2013
259,SIGMOD,SIGMOD Record,44,3,2015
260,PVLDB,PVLDB,12,5,2019
261,VLDB,VLDB J.,24,4,2015
262,IS,Inf. Syst.,46,,2014
263,CACM,Commun. ACM,61,7,2018
264,PVLDB,PVLDB,6,5,2013
265,TKDE,IEEE Trans. Knowl. Data Eng.,28,3,2016
266,VLDB,VLDB J.,26,5,2017
267,DEBU,IEEE Data Eng. Bull.,37,4,2014
268,TKDE,IEEE Trans. Knowl. Data Eng.,25,4,2013
269,PVLDB,PVLDB,6,2,2012
270,TKDE,IEEE Trans. Knowl. Data Eng.,31,9,2019
271,CACM,Commun. ACM,54,9,2011
272,VLDB,VLDB J.,27,5,2018
273,IS,Inf. Syst.,36,6,2011
274,PVLDB,PVLDB,12,7,2019
275,TODS,ACM Trans. Database Syst.,41,2,2016
276,KAIS,Knowl. Inf. Syst.,29,3,2011
277,KAIS,Knowl. Inf. Syst.,30,1,2012
278,TKDE,IEEE Trans. Knowl. Data Eng.,23,11,2011
279,TKDE,IEEE Trans. Knowl. Data Eng.,28,5,2016
280,KAIS,Knowl. Inf. Syst.,61,3,2019
281,PVLDB,PVLDB,10,9,2017
282,CACM,Commun. ACM,57,5,2014
283,KAIS,Knowl. Inf. Syst.,42,3,2015
284,TKDE,IEEE Trans. Knowl. Data Eng.,29,3,2017
285,IS,Inf. Syst.,70,,2017
286,IS,Inf. Syst.,36,1,2011
287,PVLDB,PVLDB,6,7,2013
288,PVLDB,PVLDB,12,13,2019
289,SIGMOD,SIGMOD Record,47,4,2018
290,CACM,Commun. ACM,59,10,2016
291,PVLDB,PVLDB,7,5,2014
292,IS,Inf. Syst.,56,,2016
293,DEBU,IEEE Data Eng. Bull.,34,3,2011
294,KAIS,Knowl. Inf. Syst.,52,2,2017
295,PVLDB,PVLDB,12,2,2018
296,TKDE,IEEE Trans. Knowl. Data Eng.,25,9,2013
297,CACM,Commun. ACM,56,2,2013
298,CACM,Commun. ACM,62,7,2019
299,CACM,Commun. ACM,61,12,2018
300,DBSK,Datenbank-Spektrum,16,2,2016
301,PVLDB,PVLDB,13,5,2020
302,KAIS,Knowl. Inf. Syst.,59,2,2019
303,VLDB,VLDB J.,26,2,2017
304,TKDE,IEEE Trans. Knowl. Data Eng.,26,10,2014
305,CACM,Commun. ACM,61,4,2018
306,VLDB,VLDB J.,20,5,2011
307,KAIS,Knowl. Inf. Syst.,36,3,2013
308,IS,Inf. Syst.,37,4,2012
309,IS,Inf. Syst.,48,,2015
310,SIGMOD,SIGMOD Record,46,1,2017
311,DEBU,IEEE Data Eng. Bull.,42,1,2019
312,TKDE,IEEE Trans. Knowl. Data Eng.,30,1,2018
313,KAIS,Knowl. Inf. Syst.,27,2,2011
314,KAIS,Knowl. Inf. Syst.,37,1,2013
315,VLDB,VLDB J.,23,1,2014
316,PVLDB,PVLDB,10,13,2017
317,PVLDB,PVLDB,8,12,2015
318,TODS,ACM Trans. Database Syst.,37,3,2012
319,CACM,Commun. ACM,55,12,2012
320,SIGMOD,SIGMOD Record,40,4,2011
321,TKDE,IEEE Trans. Knowl. Data Eng.,29,8,2017
322,KAIS,Knowl. Inf. Syst.,56,1,2018
323,TKDE,IEEE Trans. Knowl. Data Eng.,31,11,2019
324,KAIS,Knowl. Inf. Syst.,49,3,2016
325,TKDE,IEEE Trans. Knowl. Data Eng.,25,11,2013
326,CACM,Commun. ACM,62,2,2019
327,KAIS,Knowl. Inf. Syst.,46,2,2016
328,IS,Inf. Syst.,77,,2018
329,PVLDB,PVLDB,8,8,2015
330,PVLDB,PVLDB,9,11,2016
331,CACM,Commun. ACM,58,11,2015
332,PVLDB,PVLDB,4,9,2011
333,TKDE,IEEE Trans. Knowl. Data Eng.,26,7,2014
334,CACM,Commun. ACM,58,8,2015
335,TKDE,IEEE Trans. Knowl. Data Eng.,24,1,2012
336,TKDE,IEEE Trans. Knowl. Data Eng.,31,4,2019
337,KAIS,Knowl. Inf. Syst.,33,2,2012
338,DEBU,IEEE Data Eng. Bull.,36,1,2013
339,TKDE,IEEE Trans. Knowl. Data Eng.,30,6,2018
340,IS,Inf. Syst.,69,,2017
341,CACM,Commun. ACM,56,7,2013
342,DBSK,Datenbank-Spektrum,13,1,2013
343,TODS,ACM Trans. Database Syst.,43,3,2018
344,VLDB,VLDB J.,23,6,2014
345,KAIS,Knowl. Inf. Syst.,43,1,2015
346,DBSK,Datenbank-Spektrum,12,3,2012
347,SIGMOD,SIGMOD Record,42,2,2013
348,VLDB,VLDB J.,22,3,2013
349,PVLDB,PVLDB,4,4,2011
350,TKDE,IEEE Trans. Knowl. Data Eng.,26,2,2014
351,KAIS,Knowl. Inf. Syst.,55,3,2018
352,PVLDB,PVLDB,10,10,2017
353,DBSK,Datenbank-Spektrum,19,3,2019
354,CACM,Commun. ACM,59,8,2016
355,KAIS,Knowl. Inf. Syst.,53,2,2017
356,KAIS,Knowl. Inf. Syst.,43,3,2015
357,VLDB,VLDB J.,20,2,2011
358,TKDE,IEEE Trans. Knowl. Data Eng.,26,9,2014
359,PVLDB,PVLDB,5,4,2011
360,SIGMOD,SIGMOD Record,43,2,2014
361,TKDE,IEEE Trans. Knowl. Data Eng.,27,7,2015
362,PVLDB,PVLDB,8,5,2015
363,IS,Inf. Syst.,85,,2019
364,IS,Inf. Syst.,72,,2017
365,PVLDB,PVLDB,5,9,2012
366,PVLDB,PVLDB,4,6,2011
367,CACM,Commun. ACM,60,10,2017
368,KAIS,Knowl. Inf. Syst.,44,1,2015
369,CACM,Commun. ACM,60,1,2017
370,PVLDB,PVLDB,11,9,2018
371,TKDE,IEEE Trans. Knowl. Data Eng.,24,6,2012
372,KAIS,Knowl. Inf. Syst.,47,2,2016
373,CACM,Commun. ACM,59,3,2016
374,KAIS,Knowl. Inf. Syst.,40,2,2014
375,PVLDB,PVLDB,11,4,2017
376,PVLDB,PVLDB,9,13,2016
377,DEBU,IEEE Data Eng. Bull.,38,4,2015
378,KAIS,Knowl. Inf. Syst.,57,1,2018
379,VLDB,VLDB J.,24,1,2015
380,TKDE,IEEE Trans. Knowl. Data Eng.,27,11,2015
381,CACM,Commun. ACM,60,6,2017
382,TKDE,IEEE Trans. Knowl. Data Eng.,26,4,2014
383,TKDE,IEEE Trans. Knowl. Data Eng.,23,8,2011
384,CACM,Commun. ACM,58,5,2015
385,PVLDB,PVLDB,10,6,2017
386,CACM,Commun. ACM,54,1,2011
387,KAIS,Knowl. Inf. Syst.,50,1,2017
388,TODS,ACM Trans. Database Syst.,44,3,2019
389,KAIS,Knowl. Inf. Syst.,56,3,2018
390,TKDE,IEEE Trans. Knowl. Data Eng.,30,12,2018
391,DEBU,IEEE Data Eng. Bull.,39,2,2016
392,DBSK,Datenbank-Spektrum,13,3,2013
393,VLDB,VLDB J.,25,4,2016
394,TKDE,IEEE Trans. Knowl. Data Eng.,27,2,2015
395,VLDB,VLDB J.,23,3,2014
396,TKDE,IEEE Trans. Knowl. Data Eng.,28,10,2016
397,PVLDB,PVLDB,7,13,2014
398,KAIS,Knowl. Inf. Syst.,34,2,2013
399,TKDE,IEEE Trans. Knowl. Data Eng.,31,6,2019
400,IS,Inf. Syst.,37,1,2012
401,CACM,Commun. ACM,61,9,2018
402,DBSK,Datenbank-Spektrum,14,1,2014
403,VLDB,VLDB J.,24,6,2015
404,TKDE,IEEE Trans. Knowl. Data Eng.,24,12,2012
405,TODS,ACM Trans. Database Syst.,39,1,2014
406,SIGMOD,SIGMOD Record,45,3,2016
407,PVLDB,PVLDB,10,1,2016
408,DEBU,IEEE Data Eng. Bull.,37,1,2014
409,DEBU,IEEE Data Eng. Bull.,41,3,2018
410,CACM,Commun. ACM,54,6,2011
411,PVLDB,PVLDB,9,8,2016
412,IS,Inf. Syst.,51,,2015
413,CACM,Commun. ACM,57,2,2014
414,PVLDB,PVLDB,6,14,2013
415,TODS,ACM Trans. Database Syst.,38,3,2013
416,IS,Inf. Syst.,64,,2017
417,IS,Inf. Syst.,37,6,2012
418,TKDE,IEEE Trans. Knowl. Data Eng.,31,1,2019
419,CACM,Commun. ACM,55,4,2012
420,IS,Inf. Syst.,43,,2014
421,CACM,Commun. ACM,55,9,2012
422,KAIS,Knowl. Inf. Syst.,30,3,2012
423,IS,Inf. Syst.,38,4,2013
424,VLDB,VLDB J.,21,5,2012
425,SIGMOD,SIGMOD Record,47,1,2018
426,CACM,Commun. ACM,63,2,2020
427,SIGMOD,SIGMOD Record,41,4,2012
428,VLDB,VLDB J.,28,5,2019
429,CACM,Commun. ACM,57,12,2014
430,PVLDB,PVLDB,5,10,2012
431,DBSK,Datenbank-Spektrum,17,2,2017
432,TKDE,IEEE Trans. Knowl. Data Eng.,23,3,2011
433,PVLDB,PVLDB,13,2,2019
434,TODS,ACM Trans. Database Syst.,40,4,2016
435,DEBU,IEEE Data Eng. Bull.,35,3,2012
436,KAIS,Knowl. Inf. Syst.,31,1,2012
437,PVLDB,PVLDB,9,3,2015
438,PVLDB,PVLDB,7,2,2013
439,VLDB,VLDB J.,27,2,2018
440,SIGMOD,SIGMOD Record,40,1,2011
441,IS,Inf. Syst.,80,,2019
442,KAIS,Knowl. Inf. Syst.,38,1,2014
443,TKDE,IEEE Trans. Knowl. Data Eng.,29,11,2017
444,PVLDB,PVLDB,7,7,2014
445,DBSK,Datenbank-Spektrum,11,2,2011
446,KAIS,Knowl. Inf. Syst.,58,1,2019
447,CACM,Commun. ACM,55,1,2012
448,TKDE,IEEE Trans. Knowl. Data Eng.,32,1,2020
449,SIGMOD,SIGMOD Record,48,1,2019
450,KAIS,Knowl. Inf. Syst.,39,1,2014
451,IS,Inf. Syst.,74,,2018
452,CACM,Commun. ACM,54,10,2011
453,CACM,Commun. ACM,61,6,2018
454,PVLDB,PVLDB,7,10,2014
455,KAIS,Knowl. Inf. Syst.,48,2,2016
456,CACM,Commun. ACM,59,12,2016
457,TODS,ACM Trans. Database Syst.,39,3,2014
458,VLDB,VLDB J.,22,5,2013
459,DEBU,IEEE Data Eng. Bull.,42,3,2019
460,KAIS,Knowl. Inf. Syst.,26,1,2011
461,IS,Inf. Syst.,53,,2015
462,CACM,Commun. ACM,62,10,2019
463,SIGMOD,SIGMOD Record,46,3,2017
464,KAIS,Knowl. Inf. Syst.,45,1,2015
465,CACM,Commun. ACM,58,2,2015
466,TKDE,IEEE Trans. Knowl. Data Eng.,29,5,2017
467,TODS,ACM Trans. Database Syst.,36,2,2011
468,SIGMOD,SIGMOD Record,42,4,2013
469,PVLDB,PVLDB,6,11,2013
470,PVLDB,PVLDB,9,5,2016
471,KAIS,Knowl. Inf. Syst.,54,2,2018
472,VLDB,VLDB J.,25,6,2016
473,CACM,Commun. ACM,55,6,2012
474,IS,Inf. Syst.,38,1,2013
475,TODS,ACM Trans. Database Syst.,42,2,2017
476,TKDE,IEEE Trans. Knowl. Data Eng.,30,3,2018
477,IS,Inf. Syst.,66,,2017
478,SIGMOD,SIGMOD Record,41,1,2012
479,VLDB,VLDB J.,28,2,2019
480,TKDE,IEEE Trans. Knowl. Data Eng.,28,7,2016
481,PVLDB,PVLDB,12,9,2019
482,DEBU,IEEE Data Eng. Bull.,36,3,2013
483,TODS,ACM Trans. Database Syst.,40,1,2015
484,CACM,Commun. ACM,57,7,2014
485,TODS,ACM Trans. Database Syst.,41,4,2016
486,PVLDB,PVLDB,6,9,2013
487,VLDB,VLDB J.,21,2,2012
488,KAIS,Knowl. Inf. Syst.,32,1,2012
489,TKDE,IEEE Trans. Knowl. Data Eng.,25,1,2013
490,KAIS,Knowl. Inf. Syst.,50,3,2017
491,PVLDB,PVLDB,12,4,2018
492,IS,Inf. Syst.,45,,2014
493,CACM,Commun. ACM,59,5,2016
494,IS,Inf. Syst.,36,3,2011
495,CACM,Commun. ACM,56,9,2013
496,DEBU,IEEE Data Eng. Bull.,39,4,2016
497,TKDE,IEEE Trans. Knowl. Data Eng.,30,8,2018
498,IS,Inf. Syst.,36,8,2011
499,TKDE,IEEE Trans. Knowl. Data Eng.,28,2,2016
500,PVLDB,PVLDB,5,6,2012
501,KAIS,Knowl. Inf. Syst.,41,2,2014
502,CACM,Commun. ACM,56,4,2013
503,TKDE,IEEE Trans. Knowl. Data Eng.,24,3,2012
504,PVLDB,PVLDB,11,6,2018
505,PVLDB,PVLDB,4,11,2011
506,TKDE,IEEE Trans. Knowl. Data Eng.,27,4,2015
507,CACM,Commun. ACM,62,9,2019
508,IS,Inf. Syst.,58,,2016
509,KAIS,Knowl. Inf. Syst.,60,2,2019
510,DBSK,Datenbank-Spektrum,15,1,2015
511,PVLDB,PVLDB,11,1,2017
512,KAIS,Knowl. Inf. Syst.,28,2,2011
513,TKDE,IEEE Trans. Knowl. Data Eng.,26,12,2014
514,TKDE,IEEE Trans. Knowl. Data Eng.,25,6,2013
515,KAIS,Knowl. Inf. Syst.,35,2,2013
516,PVLDB,PVLDB,6,4,2013
517,PVLDB,PVLDB,11,11,2018
518,IS,Inf. Syst.,79,,2019
519,VLDB,VLDB J.,26,4,2017
520,CACM,Commun. ACM,61,1,2018
521,KAIS,Knowl. Inf. Syst.,37,3,2013
522,CACM,Commun. ACM,62,4,2019
523,KAIS,Knowl. Inf. Syst.,51,1,2017
524,TKDE,IEEE Trans. Knowl. Data Eng.,24,8,2012
525,IS,Inf. Syst.,87,,2020
526,PVLDB,PVLDB,5,1,2011
527,PVLDB,PVLDB,12,10,2019
528,VLDB,VLDB J.,25,1,2016
529,CACM,Commun. ACM,60,3,2017
530,PVLDB,PVLDB,5,12,2012
531,VLDB,VLDB J.,26,6,2017
532,DBSK,Datenbank-Spektrum,16,1,2016
533,PVLDB,PVLDB,12,1,2018
534,TKDE,IEEE Trans. Knowl. Data Eng.,23,10,2011
535,KAIS,Knowl. Inf. Syst.,29,2,2011
536,KAIS,Knowl. Inf. Syst.,38,3,2014
537,SIGMOD,SIGMOD Record,47,3,2018
538,TKDE,IEEE Trans. Knowl. Data Eng.,28,12,2016
539,TKDE,IEEE Trans. Knowl. Data Eng.,31,3,2019
540,CACM,Commun. ACM,54,3,2011
541,IS,Inf. Syst.,68,,2017
542,VLDB,VLDB J.,24,3,2015
543,IS,Inf. Syst.,36,5,2011
544,VLDB,VLDB J.,27,4,2018
545,KAIS,Knowl. Inf. Syst.,57,3,2018
546,TKDE,IEEE Trans. Knowl. Data Eng.,31,8,2019
547,SIGMOD,SIGMOD Record,44,2,2015
548,IS,Inf. Syst.,40,,2014
549,CACM,Commun. ACM,56,1,2013
550,CACM,Commun. ACM,60,8,2017
551,TKDE,IEEE Trans. Knowl. Data Eng.,31,10,2019
552,CACM,Commun. ACM,62,6,2019
553,TKDE,IEEE Trans. Knowl. Data Eng.,25,3,2013
554,VLDB,VLDB J.,23,5,2014
555,CACM,Commun. ACM,56,10,2013
556,KAIS,Knowl. Inf. Syst.,59,1,2019
557,KAIS,Knowl. Inf. Syst.,44,3,2015
558,TKDE,IEEE Trans. Knowl. Data Eng.,27,9,2015
559,VLDB,VLDB J.,20,4,2011
560,KAIS,Knowl. Inf. Syst.,51,3,2017
561,PVLDB,PVLDB,13,4,2019
562,SIGMOD,SIGMOD Record,43,4,2014
563,TODS,ACM Trans. Database Syst.,37,2,2012
564,IS,Inf. Syst.,37,3,2012
565,CACM,Commun. ACM,61,11,2018
566,VLDB,VLDB J.,26,1,2017
567,CACM,Commun. ACM,60,12,2017
568,PVLDB,PVLDB,6,1,2012
569,KAIS,Knowl. Inf. Syst.,42,2,2015
570,KAIS,Knowl. Inf. Syst.,52,1,2017
571,TKDE,IEEE Trans. Knowl. Data Eng.,25,8,2013
572,IS,Inf. Syst.,82,,2019
573,CACM,Commun. ACM,62,1,2019
574,CACM,Commun. ACM,54,8,2011
575,IS,Inf. Syst.,89,,2020
576,DEBU,IEEE Data Eng. Bull.,34,2,2011
577,TODS,ACM Trans. Database Syst.,43,2,2018
578,PVLDB,PVLDB,4,8,2011
579,IS,Inf. Syst.,38,6,2013
580,SIGMOD,SIGMOD Record,42,1,2013
581,KAIS,Knowl. Inf. Syst.,33,1,2011
582,KAIS,Knowl. Inf. Syst.,31,3,2012
583,PVLDB,PVLDB,8,2,2014
584,CACM,Commun. ACM,58,10,2015
585,KAIS,Knowl. Inf. Syst.,46,1,2016
586,KAIS,Knowl. Inf. Syst.,55,2,2018
587,TKDE,IEEE Trans. Knowl. Data Eng.,26,6,2014
588,VLDB,VLDB J.,22,2,2013
589,TODS,ACM Trans. Database Syst.,42,4,2017
590,DBSK,Datenbank-Spektrum,18,2,2018
591,PVLDB,PVLDB,10,8,2017
592,PVLDB,PVLDB,10,12,2017
593,TKDE,IEEE Trans. Knowl. Data Eng.,23,5,2011
594,TKDE,IEEE Trans. Knowl. Data Eng.,29,2,2017
595,SIGMOD,SIGMOD Record,40,3,2011
596,IS,Inf. Syst.,47,,2015
597,PVLDB,PVLDB,7,4,2013
598,PVLDB,PVLDB,8,11,2015
599,PVLDB,PVLDB,9,10,2016
600,CACM,Commun. ACM,55,11,2012
601,DEBU,IEEE Data Eng. Bull.,38,1,2015
602,CACM,Commun. ACM,54,12,2011
603,IS,Inf. Syst.,61,,2016
604,CACM,Commun. ACM,57,9,2014
605,KAIS,Knowl. Inf. Syst.,61,2,2019
606,IS,Inf. Syst.,39,,2014
607,DBSK,Datenbank-Spektrum,14,3,2014
608,DBSK,Datenbank-Spektrum,12,2,2012
609,TKDE,IEEE Trans. Knowl. Data Eng.,26,1,2014
610,PVLDB,PVLDB,8,7,2015
611,CACM,Commun. ACM,57,4,2014
612,DEBU,IEEE Data Eng. Bull.,37,3,2014
613,PVLDB,PVLDB,10,3,2016
614,CACM,Commun. ACM,58,7,2015
615,TKDE,IEEE Trans. Knowl. Data Eng.,30,5,2018
616,IS,Inf. Syst.,37,8,2012
617,PVLDB,PVLDB,7,9,2014
618,TKDE,IEEE Trans. Knowl. Data Eng.,29,7,2017
619,CACM,Commun. ACM,56,6,2013
620,PVLDB,PVLDB,4,5,2011
621,TKDE,IEEE Trans. Knowl. Data Eng.,27,1,2015
622,DEBU,IEEE Data Eng. Bull.,39,1,2016
623,TKDE,IEEE Trans. Knowl. Data Eng.,26,3,2014
624,CACM,Commun. ACM,55,8,2012
625,KAIS,Knowl. Inf. Syst.,62,2,2020
626,PVLDB,PVLDB,11,3,2017
627,IS,Inf. Syst.,55,,2016
628,CACM,Commun. ACM,59,2,2016
629,KAIS,Knowl. Inf. Syst.,40,1,2014
630,TODS,ACM Trans. Database Syst.,40,3,2015
631,TKDE,IEEE Trans. Knowl. Data Eng.,24,5,2012
632,VLDB,VLDB J.,28,4,2019
633,IS,Inf. Syst.,42,,2014
634,PVLDB,PVLDB,5,3,2011
635,DBSK,Datenbank-Spektrum,19,2,2019
636,DEBU,IEEE Data Eng. Bull.,38,3,2015
637,TODS,ACM Trans. Database Syst.,43,4,2018
638,DBSK,Datenbank-Spektrum,15,3,2015
639,PVLDB,PVLDB,10,5,2017
640,IS,Inf. Syst.,38,3,2013
641,SIGMOD,SIGMOD Record,43,1,2014
642,TKDE,IEEE Trans. Knowl. Data Eng.,23,2,2011
643,CACM,Commun. ACM,58,9,2015
644,KAIS,Knowl. Inf. Syst.,49,2,2016
645,TKDE,IEEE Trans. Knowl. Data Eng.,25,10,2013
646,KAIS,Knowl. Inf. Syst.,39,3,2014
647,TODS,ACM Trans. Database Syst.,44,2,2019
648,TKDE,IEEE Trans. Knowl. Data Eng.,24,11,2012
649,VLDB,VLDB J.,25,3,2016
650,KAIS,Knowl. Inf. Syst.,34,1,2013
651,PVLDB,PVLDB,8,4,2014
652,PVLDB,PVLDB,6,13,2013
653,PVLDB,PVLDB,7,12,2014
654,KAIS,Knowl. Inf. Syst.,27,1,2011
655,CACM,Commun. ACM,59,7,2016
656,IS,Inf. Syst.,71,,2017
657,TKDE,IEEE Trans. Knowl. Data Eng.,30,11,2018
658,SIGMOD,SIGMOD Record,48,3,2019
659,CACM,Commun. ACM,58,4,2015
660,TODS,ACM Trans. Database Syst.,36,4,2011
661,PVLDB,PVLDB,11,13,2018
662,KAIS,Knowl. Inf. Syst.,47,1,2016
663,IS,Inf. Syst.,38,8,2013
664,TKDE,IEEE Trans. Knowl. Data Eng.,27,10,2015
665,KAIS,Knowl. Inf. Syst.,26,3,2011
666,TKDE,IEEE Trans. Knowl. Data Eng.,32,3,2020
667,IS,Inf. Syst.,63,,2017
668,TKDE,IEEE Trans. Knowl. Data Eng.,23,7,2011
669,CACM,Commun. ACM,62,12,2019
670,CACM,Commun. ACM,61,3,2018
671,KAIS,Knowl. Inf. Syst.,45,3,2015
672,IS,Inf. Syst.,50,,2015
673,TODS,ACM Trans. Database Syst.,38,2,2013
674,SIGMOD,SIGMOD Record,44,4,2015
675,PVLDB,PVLDB,9,7,2016
676,CACM,Commun. ACM,56,12,2013
677,DEBU,IEEE Data Eng. Bull.,40,4,2017
678,CACM,Commun. ACM,57,1,2014
679,VLDB,VLDB J.,20,6,2011
680,TKDE,IEEE Trans. Knowl. Data Eng.,28,9,2016
681,PVLDB,PVLDB,6,6,2013
682,VLDB,VLDB J.,24,5,2015
683,PVLDB,PVLDB,12,12,2019
684,CACM,Commun. ACM,60,5,2017
685,VLDB,VLDB J.,27,1,2018
686,SIGMOD,SIGMOD Record,41,3,2012
687,KAIS,Knowl. Inf. Syst.,36,2,2013
688,PVLDB,PVLDB,9,2,2015
689,DEBU,IEEE Data Eng. Bull.,41,2,2018
690,DEBU,IEEE Data Eng. Bull.,34,4,2011
691,KAIS,Knowl. Inf. Syst.,58,3,2019
692,SIGMOD,SIGMOD Record,45,2,2016
693,KAIS,Knowl. Inf. Syst.,32,3,2012
694,VLDB,VLDB J.,21,4,2012
695,CACM,Commun. ACM,57,11,2014
696,TKDE,IEEE Trans. Knowl. Data Eng.,27,6,2015
697,PVLDB,PVLDB,12,6,2019
698,DEBU,IEEE Data Eng. Bull.,35,2,2012
699,DBSK,Datenbank-Spektrum,17,1,2017
700,CACM,Commun. ACM,61,8,2018
701,VLDB,VLDB J.,20,1,2011
702,TKDE,IEEE Trans. Knowl. Data Eng.,28,4,2016
703,PVLDB,PVLDB,13,1,2019
704,CACM,Commun. ACM,55,3,2012
705,TKDE,IEEE Trans. Knowl. Data Eng.,23,12,2011
706,KAIS,Knowl. Inf. Syst.,53,1,2017
707,IS,Inf. Syst.,84,,2019
708,CACM,Commun. ACM,54,5,2011
709,PVLDB,PVLDB,11,8,2018
710,CACM,Commun. ACM,63,1,2020
711,IS,Inf. Syst.,76,,2018
712,PVLDB,PVLDB,5,8,2012
713,TODS,ACM Trans. Database Syst.,41,1,2016
